# Blender v2.76 (sub 0) OBJ File: 'untitled3.blend'
# www.blender.org
o Circle
v -2.530874 -0.822471 -0.176589
v -3.029030 -0.752050 -0.054807
v -3.395354 -0.660586 0.299298
v -3.531688 -0.572589 0.790846
v -3.401503 -0.511636 1.288124
v -3.039683 -0.494060 1.657889
v -2.543175 -0.524570 1.801061
v -2.045019 -0.594991 1.679280
v -1.678696 -0.686452 1.325173
v -1.542361 -0.774451 0.833627
v -1.672545 -0.835405 0.336348
v -2.034365 -0.852979 -0.033416
v -2.546209 -0.926637 0.044993
v -2.942898 -0.870557 0.141970
v -3.234606 -0.797725 0.423950
v -3.343171 -0.727653 0.815376
v -3.239504 -0.679114 1.211366
v -2.951380 -0.665116 1.505815
v -2.556004 -0.689410 1.619825
v -2.159316 -0.745490 1.522849
v -1.867607 -0.818322 1.240869
v -1.759042 -0.888398 0.849443
v -1.862710 -0.936935 0.453453
v -2.150832 -0.950931 0.159003
v -2.551107 -0.808025 0.832410
v 1.451147 28.905472 -4.584503
v 1.581331 28.966427 -4.087224
v 1.444996 29.054424 -3.595677
v 1.078673 29.145885 -3.241572
v 0.580517 29.216309 -3.119790
v 0.084009 29.246819 -3.262962
v -0.277811 29.229240 -3.632727
v -0.407996 29.168285 -4.130006
v -0.271662 29.080288 -4.621553
v 0.094662 28.988827 -4.975658
v 0.592818 28.918404 -5.097441
v 1.089327 28.887897 -4.954268
v 1.601792 30.404667 -4.515602
v 1.713532 30.282406 -4.025178
v 1.558753 30.187195 -3.540485
v 1.178929 30.144535 -3.191397
v 0.675831 30.165863 -3.071452
v 0.184265 30.245464 -3.212787
v -0.164054 30.362007 -3.577534
v -0.275795 30.484268 -4.067958
v -0.121017 30.579483 -4.552651
v 0.258808 30.622139 -4.901739
v 0.761906 30.600811 -5.021685
v 1.253473 30.521210 -4.880349
v 1.728071 31.778397 -3.905730
v 1.824291 31.487694 -3.488379
v 1.653991 31.224037 -3.076758
v 1.262805 31.058067 -2.781163
v 0.755548 31.034264 -2.680797
v 0.268141 31.158993 -2.802552
v -0.068815 31.398849 -3.113807
v -0.165036 31.689556 -3.531159
v 0.005263 31.953213 -3.942780
v 0.396450 32.119179 -4.238377
v 0.903707 32.142982 -4.338741
v 1.391115 32.018246 -4.216986
v 1.812836 32.840088 -2.837717
v 1.898565 32.418587 -2.549731
v 1.717775 32.024132 -2.267477
v 1.318908 31.762405 -2.066586
v 0.808841 31.703556 -2.000882
v 0.324245 31.863338 -2.087976
v -0.005032 32.198948 -2.304527
v -0.090762 32.620449 -2.592512
v 0.090027 33.014904 -2.874766
v 0.488894 33.276619 -3.075662
v 0.998962 33.335472 -3.141362
v 1.483559 33.175690 -3.054271
v 1.844572 33.445545 -1.456618
v 1.926267 32.948654 -1.336722
v 1.741442 32.478813 -1.222557
v 1.339622 32.161903 -1.144718
v 0.828473 32.082851 -1.124052
v 0.344958 32.262833 -1.166108
v 0.018635 32.653629 -1.259606
v -0.063060 33.150520 -1.379502
v 0.121764 33.620358 -1.493667
v 0.523584 33.937267 -1.571513
v 1.034733 34.016323 -1.592174
v 1.518249 33.836334 -1.550122
v 1.818971 33.512539 0.049994
v 1.903633 33.005905 -0.014093
v 1.721776 32.526329 -0.083912
v 1.322129 32.202293 -0.140759
v 0.811776 32.120621 -0.169392
v 0.327466 32.303219 -0.162149
v -0.001030 32.701145 -0.120962
v -0.085694 33.207771 -0.056873
v 0.096162 33.687355 0.012944
v 0.495810 34.011391 0.069784
v 1.006164 34.093060 0.098423
v 1.490474 33.910461 0.091174
v 1.739508 33.031971 1.477495
v 1.833739 32.582573 1.238519
v 1.661451 32.160225 0.993808
v 1.268809 31.878086 0.808935
v 0.761019 31.811756 0.733438
v 0.274145 31.979015 0.787544
v -0.061356 32.335045 0.956759
v -0.155588 32.784435 1.195738
v 0.016699 33.206787 1.440446
v 0.409343 33.488934 1.625314
v 0.917133 33.555264 1.700817
v 1.404008 33.388004 1.646705
v 1.616977 32.069111 2.632010
v 1.726076 31.736141 2.250990
v 1.568658 31.430225 1.864237
v 1.186900 31.233318 1.575380
v 0.683095 31.198185 1.461820
v 0.192237 31.334251 1.553990
v -0.154149 31.605042 1.827188
v -0.263251 31.938004 2.208209
v -0.105832 32.243927 2.594960
v 0.275927 32.440842 2.883816
v 0.779732 32.475967 2.997380
v 1.270591 32.339912 2.905206
v 1.468018 30.754730 3.356740
v 1.595268 30.581577 2.885810
v 1.456000 30.435474 2.409154
v 1.087529 30.355560 2.054482
v 0.588587 30.363251 1.916829
v 0.092866 30.456493 2.033091
v -0.266807 30.610291 2.372104
v -0.394059 30.783440 2.843030
v -0.254790 30.929546 3.319690
v 0.113681 31.009468 3.674363
v 0.612623 31.001770 3.812018
v 1.108346 30.908535 3.695753
v 1.312864 29.267338 3.553252
v 1.459080 29.275684 3.056763
v 1.338778 29.311073 2.554550
v 0.984192 29.364029 2.181170
v 0.490332 29.420353 2.036668
v -0.010472 29.464958 2.159779
v -0.384029 29.485893 2.517502
v -0.530247 29.477543 3.013983
v -0.409945 29.442158 3.516203
v -0.055358 29.389210 3.889586
v 0.438501 29.332878 4.034087
v 0.939307 29.288280 3.910976
v 0.913956 25.360012 3.665905
v 1.060173 25.368355 3.169417
v 0.939870 25.403748 2.667206
v 0.585284 25.456699 2.293823
v 0.091425 25.513023 2.149322
v -0.409379 25.557632 2.272433
v -0.782937 25.578564 2.630155
v -0.929154 25.570217 3.126636
v -0.808852 25.534828 3.628857
v -0.454265 25.481884 4.002239
v 0.039594 25.425552 4.146740
v 0.540399 25.380951 4.023630
v 0.724869 25.223595 3.558615
v 0.841269 25.230236 3.163375
v 0.745500 25.258411 2.763574
v 0.463222 25.300568 2.466336
v 0.070072 25.345406 2.351301
v -0.328605 25.380917 2.449307
v -0.625986 25.397579 2.734080
v -0.742386 25.390934 3.129318
v -0.646616 25.362762 3.529122
v -0.364338 25.320614 3.826364
v 0.028811 25.275772 3.941396
v 0.427489 25.240265 3.843392
v 0.049442 25.310589 3.146349
v 0.596784 25.933247 4.007705
v 0.095979 25.977848 4.130816
v -0.397880 26.034176 3.986315
v 0.996255 25.956043 2.651281
v -0.352994 26.109924 2.256509
v -0.752468 26.087124 3.612932
v -0.872769 26.122513 3.110712
v 1.116558 25.920650 3.153493
v 0.970341 25.912308 3.649982
v 0.147810 26.065319 2.133397
v 0.641669 26.008995 2.277899
v -0.726552 26.130859 2.614231
v -2.931857 0.173138 -0.207887
v -1.937192 0.072209 -0.186496
v -3.304330 0.413552 1.135045
v -1.947846 0.330201 1.526200
v -1.575372 0.089785 0.183269
v -3.298181 0.264602 0.146219
v -3.434515 0.352601 0.637766
v -2.942510 0.431128 1.504809
v -2.446002 0.400620 1.647982
v -1.581524 0.238736 1.172094
v -1.445188 0.150739 0.680548
v -2.433701 0.102717 -0.329669
v -0.227415 25.914497 -4.505122
v 0.767249 25.813568 -4.483732
v -0.599889 26.154911 -3.162191
v 0.756595 26.071556 -2.771036
v 1.129070 25.831142 -4.113967
v -0.730073 26.093960 -3.659469
v 0.258440 26.141979 -2.649254
v 1.259254 25.892097 -3.616688
v -0.593739 26.005962 -4.151017
v -0.238068 26.172489 -2.792427
v 1.122918 25.980095 -3.125142
v 0.270741 25.844078 -4.626905
v -0.431010 25.147694 -4.321482
v 0.643548 25.478207 -4.461948
v -0.553880 24.823483 -2.915360
v 0.986458 25.220509 -2.744247
v 1.109329 25.544727 -4.150371
v -0.796834 24.853592 -3.392398
v 0.475705 25.035320 -2.541150
v 1.352282 25.514614 -3.673331
v -0.751860 24.972263 -3.907075
v -0.088099 24.889999 -2.603781
v 1.307308 25.395947 -3.158655
v 0.079745 25.332886 -4.524581
v -0.537243 25.522675 -4.271051
v 0.537315 25.853180 -4.411517
v -0.660113 25.198460 -2.864929
v 0.880224 25.595486 -2.693818
v 1.003096 25.919701 -4.099938
v -0.903067 25.228569 -3.341967
v 0.369471 25.410301 -2.490721
v 1.246048 25.889587 -3.622901
v -0.858092 25.347240 -3.856643
v -0.194332 25.264977 -2.553351
v 1.201075 25.770920 -3.108225
v -0.026489 25.707859 -4.474149
v -0.642107 25.327068 -4.472051
v 0.671974 25.731251 -4.643828
v 0.159820 25.311928 -4.687145
v 1.091321 25.416119 -2.543247
v 1.241580 25.812595 -4.262797
v -1.089474 24.967411 -3.335871
v 1.211768 24.971001 -3.030328
v 1.538688 25.775776 -3.679426
v -0.405317 25.379604 -2.619511
v -0.861232 25.558304 -4.130095
v 1.483690 25.630653 -3.050027
v -0.017503 25.553535 -4.720420
v 1.363196 24.952866 -3.584347
v 0.190717 25.217381 -2.473280
v -0.792365 24.930592 -2.752500
v -1.012660 25.576439 -3.576074
v 1.196320 25.018276 -4.137260
v 0.782609 25.067818 -2.623648
v 0.466716 25.189651 -2.294878
v -0.845781 25.511032 -3.023163
v -1.034475 25.112537 -3.965270
v -0.222760 25.011936 -2.371469
v 0.755853 25.149700 -4.540911
v -0.432076 25.461483 -4.536774
v -0.321521 25.872707 -4.549215
v 0.866405 25.560917 -4.553351
v -0.735228 25.922249 -3.035603
v 0.893162 25.479038 -2.636090
v 1.306872 25.429493 -4.149700
v -0.902106 25.987659 -3.588515
v 0.301270 25.628601 -2.485721
v 1.473747 25.364082 -3.596789
v -0.750678 25.969521 -4.142535
v -0.294763 25.790825 -2.631953
v 1.322321 25.382217 -3.042769
v 0.270372 25.723141 -4.699584
v -0.512178 25.710972 -4.756215
v 0.940543 25.329685 -4.761274
v 0.973267 25.229557 -2.416648
v 1.479192 25.168968 -4.267648
v -1.222175 25.851551 -3.581372
v 1.683265 25.088978 -3.591490
v 1.498083 25.111153 -2.913977
v 0.211651 25.528072 -4.940102
v -1.018100 25.771564 -2.905215
v 0.249439 25.412457 -2.232761
v -1.036993 25.829376 -4.258886
v -0.479453 25.610844 -2.411588
v 1.803504 25.480160 -4.247264
v 1.583421 25.510002 -3.601051
v 1.318797 25.020500 -4.391117
v 1.098712 25.050346 -3.744903
v 1.375087 25.984882 -4.416481
v 1.155002 26.014725 -3.770267
v 0.890380 25.525223 -4.560334
v 0.670294 25.555065 -3.914119
v 2.147378 25.014618 -0.260075
v 2.239672 23.767540 0.218442
v 2.118287 22.914200 0.197112
v 2.118160 22.442204 -0.108517
v 2.310902 22.346992 -0.545442
v 2.644796 22.769646 -0.991191
v 2.807895 23.757492 -1.441836
v 2.469875 24.741409 -2.129061
v 2.052868 25.246922 -2.981687
v 1.624409 25.743542 -4.197694
v 1.359595 25.934349 -2.784497
v 1.559775 25.954987 -1.454820
v 1.672665 24.621819 -0.601847
v 1.723189 23.442234 -0.217686
v 1.593929 22.655804 -0.281329
v 1.590615 22.233562 -0.587252
v 1.776371 22.162384 -0.992627
v 2.103572 22.568096 -1.378209
v 2.283962 23.500916 -1.744173
v 2.004691 24.452133 -2.339176
v 1.645991 24.970081 -3.112129
v 1.284008 25.497555 -4.222167
v 1.013202 25.611702 -2.909702
v 1.171677 25.562473 -1.673728
v 2.125937 24.937267 -0.364523
v 2.210594 23.793369 0.074404
v 2.099253 23.010628 0.054839
v 2.099135 22.577690 -0.225503
v 2.275931 22.490349 -0.626279
v 2.582199 22.878040 -1.035148
v 2.731806 23.784149 -1.448508
v 2.421749 24.686665 -2.078873
v 2.039247 25.150349 -2.860954
v 1.646235 25.605881 -3.976352
v 1.403333 25.780899 -2.680080
v 1.586949 25.799828 -1.460416
v 1.690500 24.576965 -0.678019
v 1.736844 23.494976 -0.325641
v 1.618280 22.773617 -0.384017
v 1.615239 22.386307 -0.664630
v 1.785625 22.321018 -1.036464
v 2.085753 22.693161 -1.390145
v 2.251220 23.548801 -1.725830
v 1.995055 24.421318 -2.271603
v 1.666033 24.896416 -2.980605
v 1.333999 25.380245 -3.998801
v 1.085600 25.484947 -2.794925
v 1.230962 25.439793 -1.661215
v -0.960917 25.071007 -7.347052
v -1.444779 23.861053 -7.654618
v -1.463264 22.999512 -7.626653
v -1.408413 22.533298 -7.317107
v -1.409754 22.471031 -6.834157
v -1.450776 22.943233 -6.320188
v -1.247601 23.942352 -5.912771
v -0.497951 24.849548 -5.500874
v 0.316253 25.271145 -4.938972
v 1.293595 25.680367 -4.052279
v 0.959706 25.828648 -5.455910
v 0.219809 25.889702 -6.577239
v -0.455151 24.600224 -7.209159
v -0.850972 23.449066 -7.453507
v -0.833826 22.651855 -7.395212
v -0.768096 22.234081 -7.090198
v -0.772788 22.194416 -6.640414
v -0.836093 22.649029 -6.182540
v -0.693050 23.597351 -5.840703
v -0.040132 24.482956 -5.485397
v 0.690242 24.927284 -4.972058
v 1.568238 25.378910 -4.155593
v 1.270281 25.450199 -5.465202
v 0.596242 25.434784 -6.514298
v -0.909749 24.990643 -7.256084
v -1.353576 23.880795 -7.538201
v -1.370537 23.090530 -7.512554
v -1.320218 22.662888 -7.228617
v -1.321450 22.605774 -6.785624
v -1.359076 23.038910 -6.314184
v -1.172711 23.955368 -5.940473
v -0.485086 24.787502 -5.562656
v 0.261750 25.174217 -5.047242
v 1.158227 25.549580 -4.233912
v 0.851965 25.685593 -5.521412
v 0.173289 25.741592 -6.549963
v -0.445825 24.558804 -7.129601
v -0.808901 23.502888 -7.353735
v -0.793172 22.771641 -7.300258
v -0.732879 22.388432 -7.020482
v -0.737185 22.352051 -6.607914
v -0.795253 22.769051 -6.187922
v -0.664042 23.638912 -5.874369
v -0.065146 24.451241 -5.548460
v 0.604802 24.858807 -5.077591
v 1.410150 25.273064 -4.328681
v 1.136846 25.338459 -5.529933
v 0.518577 25.324318 -6.492230
v 1.703034 22.818840 -6.985801
v 1.904062 21.536205 -6.658462
v 2.137495 20.893978 -6.132691
v 2.133415 20.681301 -5.612178
v 1.180767 25.670033 -4.173758
v 1.738879 25.123020 -5.395613
v 1.854526 24.368210 -6.502613
v 2.135628 22.808304 -6.429742
v 2.345122 21.641449 -6.060820
v 2.566691 21.077789 -5.538868
v 2.558511 20.905964 -5.046628
v 1.537489 25.571445 -3.973730
v 2.088730 25.019089 -5.069164
v 2.232522 24.269550 -6.055408
v 1.710247 22.818836 -6.854273
v 1.894641 21.642330 -6.554010
v 2.108759 21.053234 -6.071745
v 2.105017 20.858158 -5.594295
v 1.231188 25.434128 -4.274888
v 1.743127 24.932373 -5.395650
v 1.849205 24.240025 -6.411057
v 2.107049 22.809177 -6.344216
v 2.299212 21.738853 -6.005820
v 2.502449 21.221840 -5.527051
v 2.494946 21.064232 -5.075540
v 1.558398 25.343700 -4.091412
v 2.064031 24.837048 -5.096210
v 2.195929 24.149521 -6.000853
v 4.428050 23.556744 -4.564967
v 4.388267 22.233215 -4.366452
v 4.051484 21.501629 -4.058659
v 3.589821 21.196022 -3.960394
v 1.108440 25.842178 -4.306793
v 2.501837 25.524754 -4.059136
v 3.722909 24.987366 -4.228687
v 3.994333 23.437687 -4.022595
v 3.895976 22.220081 -3.800536
v 3.546174 21.566547 -3.500923
v 3.103397 21.306381 -3.410631
v 1.014475 25.703701 -3.920820
v 2.286167 25.357632 -3.652540
v 3.396934 24.802628 -3.768015
v 4.303659 23.532211 -4.529218
v 4.267168 22.318199 -4.347128
v 3.958250 21.647137 -4.064805
v 3.534783 21.366817 -3.974665
v 1.258706 25.628559 -4.292408
v 2.536819 25.337399 -4.065237
v 3.656857 24.844471 -4.220760
v 3.905824 23.423012 -4.031721
v 3.815609 22.306145 -3.828032
v 3.494749 21.706684 -3.553210
v 3.088607 21.468044 -3.470387
v 1.172519 25.501537 -3.938368
v 2.338988 25.184105 -3.692283
v 3.357852 24.675018 -3.798199
v -2.915873 21.931850 -2.252342
v -3.614576 22.524704 -2.122958
v -4.006241 23.208111 -1.637207
v -3.985918 23.798954 -0.925246
v -3.559054 24.138916 -0.177843
v -2.840030 24.136913 0.404735
v -2.021504 23.793468 0.666387
v -1.322800 23.200619 0.537004
v -0.931136 22.517212 0.051253
v -0.951458 21.926365 -0.660709
v -1.378320 21.586407 -1.408112
v -2.097344 21.588409 -1.990690
v -2.459857 22.613270 -2.659662
v -3.105271 23.160904 -2.540145
v -3.467063 23.792187 -2.091442
v -3.448292 24.337967 -1.433781
v -3.053983 24.652004 -0.743381
v -2.389799 24.650146 -0.205236
v -1.633701 24.332905 0.036460
v -0.988286 23.785267 -0.083055
v -0.626494 23.153984 -0.531759
v -0.645267 22.608204 -1.189421
v -1.039572 22.294167 -1.879819
v -1.703757 22.296021 -2.417964
v -1.945709 23.483154 -2.399676
v -2.280909 23.767574 -2.337605
v -2.468809 24.095436 -2.104568
v -2.459060 24.378891 -1.763007
v -2.254273 24.541988 -1.404442
v -1.909323 24.541023 -1.124953
v -1.516639 24.376263 -0.999426
v -1.181438 24.091843 -1.061498
v -0.993538 23.763981 -1.294534
v -1.003288 23.480526 -1.636096
v -1.208073 23.317425 -1.994659
v -1.553022 23.318390 -2.274149
v -1.720930 23.906570 -1.980844
v -1.814379 23.985859 -1.963540
v -1.866762 24.077263 -1.898573
v -1.864044 24.156284 -1.803351
v -1.806952 24.201752 -1.703389
v -1.710786 24.201485 -1.625472
v -1.601312 24.155548 -1.590477
v -1.507863 24.076260 -1.607781
v -1.455481 23.984856 -1.672749
v -1.458199 23.905834 -1.767970
v -1.515290 23.860363 -1.867932
v -1.611455 23.860634 -1.945849
v -3.611381 20.949863 -1.225507
v -4.250303 21.491989 -1.107192
v -4.608458 22.116924 -0.663004
v -4.589873 22.657215 -0.011958
v -4.199533 22.968090 0.671497
v -3.542028 22.966255 1.204229
v -2.793536 22.652199 1.443493
v -2.154614 22.110073 1.325181
v -1.796460 21.485138 0.880990
v -1.815044 20.944847 0.229944
v -2.205383 20.633972 -0.453509
v -2.862886 20.635807 -0.986241
v -4.132239 20.155071 -0.876929
v -4.872598 20.783272 -0.739830
v -5.287614 21.507423 -0.225120
v -5.266079 22.133492 0.529287
v -4.813767 22.493721 1.321250
v -4.051875 22.491596 1.938559
v -3.184550 22.127678 2.215811
v -2.444190 21.499481 2.078714
v -2.029175 20.775333 1.564003
v -2.050711 20.149265 0.809595
v -2.503020 19.789032 0.017635
v -3.264910 19.791157 -0.599676
v -3.888207 23.403862 0.292532
v -4.276357 23.094734 -0.387086
v -2.559068 21.084679 -1.355898
v -1.905257 21.082855 -0.826157
v -3.938694 21.936054 -1.476170
v -3.303359 21.396973 -1.593820
v -1.498631 21.929241 0.500849
v -1.854772 22.550667 0.942544
v -3.234396 23.402039 0.822271
v -4.294836 22.557476 -1.034475
v -1.517109 21.391983 -0.146542
v -2.490107 23.089748 1.060193
v -2.976042 21.807468 -2.442644
v -3.766651 22.478298 -2.296242
v -4.209833 23.251598 -1.746597
v -4.186837 23.920158 -0.940986
v -3.703825 24.304840 -0.095273
v -2.890223 24.302570 0.563935
v -1.964032 23.913952 0.860005
v -1.173423 23.243122 0.713601
v -0.730240 22.469822 0.163957
v -0.753236 21.801262 -0.641654
v -1.236246 21.416580 -1.487366
v -2.049847 21.418846 -2.146575
v -2.461318 22.578056 -2.892179
v -3.188221 23.194836 -2.757572
v -3.595693 23.905823 -2.252218
v -3.574551 24.520512 -1.511521
v -3.130459 24.874195 -0.733952
v -2.382415 24.872108 -0.127862
v -1.530853 24.514805 0.144350
v -0.803949 23.898033 0.009745
v -0.396477 23.187038 -0.495611
v -0.417621 22.572350 -1.236309
v -0.861710 22.218662 -2.013875
v -1.609754 22.220753 -2.619967
v -1.878332 23.562546 -2.610543
v -2.258062 23.884750 -2.540225
v -2.470926 24.256172 -2.276230
v -2.459882 24.577282 -1.889292
v -2.227888 24.762047 -1.483093
v -1.837112 24.760952 -1.166473
v -1.392260 24.574303 -1.024270
v -1.012529 24.252098 -1.094588
v -0.799666 23.880676 -1.358584
v -0.810711 23.559570 -1.745522
v -1.042702 23.374805 -2.151720
v -1.433477 23.375893 -2.468340
v -1.628320 24.031738 -2.157088
v -1.743473 24.129448 -2.135765
v -1.808022 24.242077 -2.055710
v -1.804671 24.339455 -1.938373
v -1.734321 24.395481 -1.815195
v -1.615821 24.395149 -1.719181
v -1.480922 24.338551 -1.676059
v -1.365769 24.240841 -1.697383
v -1.301221 24.128212 -1.777439
v -1.304570 24.030838 -1.894775
v -1.374921 23.974808 -2.017952
v -1.493420 23.975140 -2.113965
v -3.654398 20.850655 -1.434348
v -4.384338 21.470009 -1.299178
v -4.793512 22.183971 -0.791711
v -4.772281 22.801231 -0.047919
v -4.326334 23.156391 0.732898
v -3.575165 23.154293 1.341522
v -2.720043 22.795498 1.614872
v -1.990103 22.176144 1.479704
v -1.580928 21.462185 0.972236
v -1.602159 20.844925 0.228443
v -2.048104 20.489761 -0.552372
v -2.799273 20.491859 -1.160997
v -4.160994 20.077385 -1.097030
v -4.990191 20.780960 -0.943481
v -5.455006 21.592003 -0.367008
v -5.430889 22.293198 0.477924
v -4.924300 22.696659 1.364916
v -4.070987 22.694275 2.056301
v -3.099588 22.286690 2.366820
v -2.270390 21.583115 2.213272
v -1.805574 20.772072 1.636799
v -1.829694 20.070877 0.791865
v -2.336277 19.667419 -0.095124
v -3.189590 19.669800 -0.786509
v -4.040102 23.558258 0.384168
v -4.484216 23.204556 -0.393439
v -2.519320 20.904682 -1.501940
v -1.771239 20.902596 -0.895818
v -4.097867 21.878811 -1.639554
v -3.370927 21.262005 -1.774167
v -1.305984 21.871021 0.622521
v -1.713476 22.582043 1.127903
v -3.292021 23.556168 0.990289
v -4.505360 22.589836 -1.134173
v -1.327127 21.256294 -0.118212
v -2.440416 23.198853 1.262515
v -2.914349 22.179909 -0.513859
v -3.007798 22.259201 -0.496555
v -3.060181 22.350605 -0.431588
v -3.057462 22.429626 -0.336366
v -3.000371 22.475094 -0.236405
v -2.904206 22.474827 -0.158487
v -2.794730 22.428890 -0.123493
v -2.701283 22.349602 -0.140797
v -2.648900 22.258202 -0.205765
v -2.651618 22.179176 -0.300986
v -2.708708 22.133709 -0.400947
v -2.804874 22.133980 -0.478865
v -3.297285 21.537411 -0.669337
v -3.608510 21.801487 -0.611706
v -3.782970 22.105896 -0.395338
v -3.773915 22.369076 -0.078208
v -3.583775 22.520504 0.254708
v -3.263503 22.519611 0.514207
v -2.898906 22.366634 0.630753
v -2.587680 22.102558 0.573123
v -2.413225 21.798149 0.356753
v -2.422277 21.534969 0.039624
v -2.612414 21.383541 -0.293291
v -2.932687 21.384434 -0.552789
v -3.378186 21.546787 0.325002
v -0.434385 25.704243 -3.267761
v -0.419177 25.716354 -3.241132
v -0.418453 25.737404 -3.215767
v -0.432407 25.761753 -3.198462
v -0.457300 25.782875 -3.193851
v -0.486463 25.795113 -3.203173
v -0.512079 25.795181 -3.223929
v -0.527288 25.783070 -3.250558
v -0.528012 25.762020 -3.275923
v -0.514058 25.737675 -3.293230
v -0.489165 25.716553 -3.297839
v -0.460002 25.704315 -3.288517
v -2.385479 21.500515 2.180644
v -1.945564 20.732918 1.635052
v -4.174806 20.075443 -0.952329
v -4.959583 20.741333 -0.807005
v -1.968392 20.069286 0.835381
v -5.399499 21.508926 -0.261413
v -2.447837 19.687443 -0.004094
v -5.376672 22.172562 0.538257
v -3.255439 19.689693 -0.658442
v -4.897222 22.554405 1.377734
v -4.089619 22.552151 2.032082
v -3.170258 22.166401 2.325966
vt 0.033354 0.969086
vt 0.029778 0.965309
vt 0.031904 0.964129
vt 0.034610 0.967010
vt 0.030038 0.955245
vt 0.033819 0.951651
vt 0.035005 0.953779
vt 0.032129 0.956495
vt 0.043900 0.951905
vt 0.047500 0.955691
vt 0.045367 0.956879
vt 0.042649 0.953999
vt 0.038315 0.970583
vt 0.038389 0.968173
vt 0.028561 0.960244
vt 0.030995 0.960283
vt 0.038892 0.950428
vt 0.038855 0.952865
vt 0.043405 0.969403
vt 0.042233 0.967227
vt 0.048724 0.960774
vt 0.047236 0.965795
vt 0.045137 0.964530
vt 0.046281 0.960735
vt 0.046675 0.639016
vt 0.053169 0.639087
vt 0.052220 0.706847
vt 0.046122 0.705558
vt 0.033679 0.639016
vt 0.040177 0.638974
vt 0.040177 0.705158
vt 0.034232 0.705559
vt 0.066175 0.639255
vt 0.072693 0.639310
vt 0.072213 0.713809
vt 0.065243 0.711389
vt 0.007661 0.639311
vt 0.014180 0.639256
vt 0.015111 0.711390
vt 0.008141 0.713810
vt 0.027185 0.639087
vt 0.028135 0.706847
vt 0.059667 0.639173
vt 0.058568 0.708892
vt 0.001086 0.639304
vt 0.001086 0.715509
vt 0.020687 0.639174
vt 0.021786 0.708893
vt 0.079268 0.639303
vt 0.079268 0.715507
vt 0.038630 0.960509
vt 0.034796 0.735704
vt 0.029197 0.736230
vt 0.071360 0.739267
vt 0.063924 0.738026
vt 0.045558 0.735704
vt 0.040177 0.735450
vt 0.023147 0.737003
vt 0.057207 0.737002
vt 0.008995 0.739269
vt 0.001086 0.740663
vt 0.016431 0.738027
vt 0.051158 0.736229
vt 0.079268 0.740661
vt 0.050912 0.763006
vt 0.045431 0.762710
vt 0.040177 0.762541
vt 0.034924 0.762710
vt 0.071113 0.764734
vt 0.063579 0.763961
vt 0.016775 0.763962
vt 0.009242 0.764736
vt 0.029443 0.763007
vt 0.056877 0.763409
vt 0.001086 0.765816
vt 0.023478 0.763410
vt 0.079268 0.765814
vt 0.023527 0.788562
vt 0.016832 0.788925
vt 0.050877 0.788300
vt 0.045413 0.788092
vt 0.040177 0.787957
vt 0.034942 0.788092
vt 0.071070 0.789482
vt 0.063523 0.788924
vt 0.009285 0.789484
vt 0.029478 0.788300
vt 0.056827 0.788561
vt 0.001086 0.790369
vt 0.079268 0.790367
vt 0.023496 0.812718
vt 0.016805 0.812972
vt 0.050903 0.812535
vt 0.045427 0.812376
vt 0.040177 0.812261
vt 0.034927 0.812377
vt 0.071084 0.813393
vt 0.063550 0.812971
vt 0.009270 0.813395
vt 0.029452 0.812536
vt 0.056859 0.812718
vt 0.001086 0.814131
vt 0.079268 0.814129
vt 0.079268 0.837049
vt 0.071116 0.836488
vt 0.023441 0.836073
vt 0.016753 0.836215
vt 0.050947 0.835968
vt 0.045451 0.835856
vt 0.040177 0.835758
vt 0.034903 0.835856
vt 0.063602 0.836214
vt 0.009238 0.836490
vt 0.029408 0.835968
vt 0.056914 0.836072
vt 0.001086 0.837050
vt 0.079268 0.859122
vt 0.071160 0.858848
vt 0.023368 0.858848
vt 0.016683 0.858813
vt 0.051005 0.858863
vt 0.045483 0.858822
vt 0.040177 0.858749
vt 0.034872 0.858822
vt 0.063672 0.858812
vt 0.009195 0.858850
vt 0.029350 0.858864
vt 0.056987 0.858848
vt 0.001086 0.859124
vt 0.057130 0.881391
vt 0.051118 0.881634
vt 0.079268 0.880370
vt 0.071245 0.880614
vt 0.023225 0.881392
vt 0.016547 0.881021
vt 0.045544 0.881722
vt 0.040177 0.881690
vt 0.034811 0.881722
vt 0.063808 0.881020
vt 0.009110 0.880616
vt 0.029237 0.881634
vt 0.001086 0.880371
vt 0.028891 0.905020
vt 0.022799 0.904283
vt 0.057556 0.904282
vt 0.051464 0.905019
vt 0.079268 0.900832
vt 0.071495 0.901981
vt 0.016145 0.903225
vt 0.045738 0.905401
vt 0.040177 0.905463
vt 0.034617 0.905401
vt 0.064209 0.903224
vt 0.008859 0.901983
vt 0.001086 0.900834
vt 0.027552 0.930588
vt 0.021169 0.928374
vt 0.059186 0.928374
vt 0.052803 0.930588
vt 0.079268 0.920467
vt 0.072457 0.922872
vt 0.014625 0.925657
vt 0.046493 0.932012
vt 0.040178 0.932506
vt 0.033862 0.932012
vt 0.065730 0.925656
vt 0.007898 0.922873
vt 0.001086 0.920469
vt 0.001086 0.984769
vt 0.006733 0.986306
vt 0.006011 0.998999
vt 0.001086 0.998999
vt 0.018866 0.987150
vt 0.025642 0.987175
vt 0.025333 0.998999
vt 0.018319 0.998999
vt 0.054713 0.987175
vt 0.061489 0.987150
vt 0.062036 0.998999
vt 0.055022 0.998999
vt 0.073621 0.986305
vt 0.079268 0.984767
vt 0.079268 0.998999
vt 0.074344 0.998999
vt 0.012572 0.986947
vt 0.011813 0.998999
vt 0.047555 0.987155
vt 0.047679 0.998999
vt 0.032801 0.987155
vt 0.040178 0.987147
vt 0.040178 0.998999
vt 0.032676 0.998999
vt 0.067783 0.986947
vt 0.068543 0.998999
vt 0.029667 0.000203
vt 0.039558 0.000203
vt 0.038385 0.005008
vt 0.030910 0.004935
vt 0.053316 0.013788
vt 0.053398 0.023859
vt 0.048617 0.022764
vt 0.048612 0.015252
vt 0.020623 0.032467
vt 0.015746 0.023656
vt 0.020562 0.022619
vt 0.024249 0.029164
vt 0.021053 0.005063
vt 0.024436 0.008671
vt 0.048232 0.005140
vt 0.044859 0.008761
vt 0.029304 0.037676
vt 0.030736 0.032981
vt 0.048397 0.032661
vt 0.039538 0.037787
vt 0.038272 0.032965
vt 0.044843 0.029276
vt 0.015924 0.013626
vt 0.020641 0.015121
vt 0.034595 0.018964
vt 0.014473 0.000518
vt 0.020966 0.000518
vt 0.020937 0.021672
vt 0.014414 0.021785
vt 0.072485 0.000518
vt 0.079268 0.000518
vt 0.079268 0.022211
vt 0.072555 0.021962
vt 0.052959 0.000518
vt 0.059389 0.000518
vt 0.059417 0.021672
vt 0.052964 0.021612
vt 0.027396 0.000518
vt 0.027390 0.021612
vt 0.001086 0.000518
vt 0.007870 0.000518
vt 0.007800 0.021962
vt 0.001086 0.022211
vt 0.065881 0.000518
vt 0.065941 0.021785
vt 0.033793 0.000518
vt 0.033796 0.021585
vt 0.040177 0.000518
vt 0.046561 0.000518
vt 0.046559 0.021585
vt 0.040177 0.021577
vt 0.752506 0.418579
vt 0.727439 0.413369
vt 0.724892 0.431026
vt 0.749959 0.436236
vt 0.791527 0.413780
vt 0.775964 0.418729
vt 0.773417 0.436387
vt 0.788980 0.431437
vt 0.707479 0.404495
vt 0.704932 0.422152
vt 0.795024 0.405056
vt 0.792477 0.422714
vt 0.697974 0.394335
vt 0.701471 0.385611
vt 0.698925 0.403269
vt 0.695427 0.411992
vt 0.785519 0.394897
vt 0.782972 0.412554
vt 0.717034 0.380662
vt 0.714487 0.398320
vt 0.740492 0.380813
vt 0.765559 0.386023
vt 0.763012 0.403680
vt 0.737945 0.398470
vt 0.698257 0.386873
vt 0.684344 0.392640
vt 0.690539 0.401991
vt 0.703322 0.394520
vt 0.793099 0.424330
vt 0.800327 0.438447
vt 0.811117 0.434734
vt 0.801922 0.421295
vt 0.749129 0.412607
vt 0.752325 0.400623
vt 0.783403 0.412897
vt 0.774542 0.422644
vt 0.768035 0.441147
vt 0.775445 0.435524
vt 0.743136 0.426751
vt 0.741615 0.433973
vt 0.772752 0.421941
vt 0.720919 0.404730
vt 0.712058 0.414477
vt 0.746332 0.414767
vt 0.698605 0.413726
vt 0.693540 0.406079
vt 0.707080 0.383837
vt 0.695134 0.388927
vt 0.727427 0.386227
vt 0.720017 0.391849
vt 0.804922 0.425382
vt 0.796856 0.413648
vt 0.716202 0.423936
vt 0.779260 0.403438
vt 0.753847 0.393401
vt 0.800290 0.425748
vt 0.781259 0.431801
vt 0.752572 0.431616
vt 0.721917 0.425245
vt 0.788382 0.443536
vt 0.702362 0.403043
vt 0.797205 0.440501
vt 0.709193 0.385248
vt 0.690161 0.391301
vt 0.737879 0.385432
vt 0.792139 0.432854
vt 0.804567 0.415080
vt 0.722710 0.405433
vt 0.697508 0.414393
vt 0.685884 0.401969
vt 0.768534 0.391804
vt 0.792944 0.402656
vt 0.719544 0.412060
vt 0.739097 0.392591
vt 0.761976 0.394852
vt 0.742423 0.414321
vt 0.751706 0.418679
vt 0.774585 0.420940
vt 0.732153 0.438148
vt 0.755031 0.440409
vt 0.597484 0.240637
vt 0.582411 0.242768
vt 0.615241 0.237472
vt 0.628958 0.236287
vt 0.626197 0.419000
vt 0.686752 0.427316
vt 0.701631 0.413826
vt 0.646410 0.402940
vt 0.556646 0.302876
vt 0.569982 0.365162
vt 0.597214 0.350128
vt 0.588269 0.291761
vt 0.685337 0.394308
vt 0.644095 0.363712
vt 0.664831 0.352673
vt 0.701388 0.383177
vt 0.606288 0.262642
vt 0.635480 0.257114
vt 0.566150 0.263043
vt 0.599253 0.255388
vt 0.742239 0.426908
vt 0.752192 0.416359
vt 0.614897 0.311824
vt 0.640536 0.303093
vt 0.600622 0.248032
vt 0.629492 0.244042
vt 0.616909 0.245129
vt 0.586796 0.249987
vt 0.626960 0.411638
vt 0.645500 0.396906
vt 0.696153 0.406892
vt 0.682505 0.419265
vt 0.563163 0.305121
vt 0.592169 0.294926
vt 0.600375 0.348464
vt 0.575395 0.362254
vt 0.681206 0.388989
vt 0.695929 0.378779
vt 0.662396 0.350799
vt 0.643377 0.360924
vt 0.608698 0.268217
vt 0.635475 0.263146
vt 0.571881 0.268584
vt 0.602245 0.261562
vt 0.733400 0.418892
vt 0.742530 0.409215
vt 0.616594 0.313329
vt 0.640112 0.305321
vt 0.940794 0.297813
vt 0.921136 0.281780
vt 0.939763 0.286603
vt 0.960733 0.303931
vt 0.871370 0.453220
vt 0.863996 0.430322
vt 0.805344 0.422346
vt 0.808819 0.440982
vt 0.966359 0.368949
vt 0.948259 0.346590
vt 0.921436 0.398287
vt 0.934592 0.422772
vt 0.804489 0.412964
vt 0.800437 0.395949
vt 0.840675 0.380292
vt 0.848385 0.398923
vt 0.916596 0.316835
vt 0.899903 0.300400
vt 0.971668 0.328131
vt 0.951080 0.308515
vt 0.743516 0.423847
vt 0.744226 0.409562
vt 0.888020 0.360792
vt 0.875726 0.342550
vt 0.935927 0.303621
vt 0.954216 0.309233
vt 0.934982 0.293339
vt 0.917896 0.288915
vt 0.872247 0.446170
vt 0.814871 0.434945
vt 0.811684 0.417851
vt 0.865483 0.425166
vt 0.959377 0.368872
vt 0.930238 0.418242
vt 0.918171 0.395782
vt 0.942775 0.348362
vt 0.810899 0.409245
vt 0.851164 0.396366
vt 0.844092 0.379276
vt 0.807183 0.393638
vt 0.913731 0.321070
vt 0.898420 0.305995
vt 0.964247 0.331431
vt 0.945362 0.313437
vt 0.754971 0.419228
vt 0.755623 0.406124
vt 0.887520 0.361389
vt 0.876243 0.344657
vt 0.844527 0.376531
vt 0.794841 0.405191
vt 0.774406 0.397202
vt 0.818358 0.367921
vt 0.870124 0.243694
vt 0.879111 0.306952
vt 0.846568 0.301641
vt 0.834825 0.243553
vt 0.847533 0.209283
vt 0.812089 0.212909
vt 0.827130 0.195822
vt 0.792678 0.201575
vt 0.751101 0.424460
vt 0.735826 0.417538
vt 0.841678 0.369889
vt 0.817675 0.361991
vt 0.777359 0.388850
vt 0.796103 0.396177
vt 0.865157 0.248042
vt 0.832779 0.247913
vt 0.843550 0.301196
vt 0.873401 0.306067
vt 0.844436 0.216478
vt 0.811924 0.219805
vt 0.825720 0.204131
vt 0.794119 0.209409
vt 0.741971 0.407503
vt 0.755982 0.413852
vt 0.704660 0.385820
vt 0.719434 0.413329
vt 0.707983 0.403333
vt 0.693374 0.374930
vt 0.715959 0.254901
vt 0.714136 0.318602
vt 0.701204 0.310562
vt 0.702517 0.251864
vt 0.715234 0.219224
vt 0.701859 0.219961
vt 0.722979 0.205374
vt 0.709221 0.208259
vt 0.757029 0.433658
vt 0.743680 0.424826
vt 0.706730 0.379196
vt 0.696378 0.369207
vt 0.709778 0.395260
vt 0.720281 0.404429
vt 0.717093 0.259109
vt 0.704763 0.256323
vt 0.703559 0.310165
vt 0.715421 0.317539
vt 0.716428 0.226383
vt 0.704160 0.227059
vt 0.723533 0.213679
vt 0.710913 0.216326
vt 0.742521 0.414975
vt 0.754766 0.423075
vt 0.691840 0.843639
vt 0.698784 0.817354
vt 0.722279 0.851574
vt 0.715864 0.875854
vt 0.838252 0.757931
vt 0.852884 0.775024
vt 0.864625 0.812472
vt 0.851109 0.796684
vt 0.764674 0.765954
vt 0.805965 0.754612
vt 0.821285 0.793617
vt 0.783143 0.804095
vt 0.819281 0.829743
vt 0.780050 0.852708
vt 0.797346 0.884232
vt 0.833585 0.863018
vt 0.706472 0.860731
vt 0.729380 0.891642
vt 0.725443 0.788919
vt 0.746904 0.825308
vt 0.845940 0.801308
vt 0.858211 0.836753
vt 0.738759 0.864050
vt 0.759204 0.894709
vt 0.799933 0.849409
vt 0.781112 0.860427
vt 0.826131 0.880011
vt 0.838920 0.866370
vt 0.772011 0.894878
vt 0.787501 0.896470
vt 0.768323 0.874068
vt 0.842251 0.853760
vt 0.807310 0.891029
vt 0.764991 0.886678
vt 0.835232 0.845560
vt 0.819742 0.843967
vt 0.815403 0.869128
vt 0.811085 0.868684
vt 0.805562 0.870201
vt 0.800315 0.873272
vt 0.812866 0.878732
vt 0.816431 0.874929
vt 0.797778 0.882877
vt 0.802096 0.883321
vt 0.796750 0.877075
vt 0.817360 0.871414
vt 0.807619 0.881804
vt 0.795821 0.880591
vt 0.687315 0.781288
vt 0.681001 0.805188
vt 0.667629 0.780124
vt 0.673979 0.756089
vt 0.827438 0.742797
vt 0.814134 0.727255
vt 0.801514 0.701751
vt 0.814894 0.717380
vt 0.784775 0.724236
vt 0.747229 0.734550
vt 0.734231 0.709087
vt 0.771989 0.698715
vt 0.761210 0.813435
vt 0.796883 0.792553
vt 0.784166 0.767418
vt 0.748291 0.788418
vt 0.694306 0.820730
vt 0.681009 0.795754
vt 0.711556 0.755432
vt 0.698357 0.730087
vt 0.821124 0.766697
vt 0.808544 0.741416
vt 0.723664 0.823749
vt 0.710533 0.798790
vt 0.652118 0.765575
vt 0.636615 0.747464
vt 0.757543 0.653130
vt 0.791755 0.656647
vt 0.672221 0.689483
vt 0.713791 0.665148
vt 0.799901 0.702610
vt 0.771653 0.732740
vt 0.686330 0.769093
vt 0.643972 0.719612
vt 0.807259 0.674758
vt 0.730083 0.757074
vt 0.681192 0.848040
vt 0.708622 0.884040
vt 0.715846 0.856695
vt 0.689049 0.818298
vt 0.846862 0.751059
vt 0.860943 0.794874
vt 0.876165 0.812656
vt 0.863418 0.770400
vt 0.763606 0.760137
vt 0.784395 0.803221
vt 0.827353 0.791421
vt 0.810328 0.747303
vt 0.825395 0.832316
vt 0.841205 0.869584
vt 0.800391 0.893476
vt 0.781004 0.858302
vt 0.697748 0.867380
vt 0.723844 0.901822
vt 0.719215 0.786123
vt 0.743581 0.827113
vt 0.855561 0.800142
vt 0.868940 0.840002
vt 0.734282 0.871136
vt 0.757434 0.905276
vt 0.782186 0.867041
vt 0.803507 0.854560
vt 0.847673 0.873774
vt 0.833185 0.889228
vt 0.789423 0.907873
vt 0.771875 0.906069
vt 0.767697 0.882495
vt 0.851447 0.859489
vt 0.811863 0.901709
vt 0.763923 0.896780
vt 0.843495 0.850200
vt 0.825948 0.848395
vt 0.816643 0.875776
vt 0.821964 0.876324
vt 0.803372 0.881431
vt 0.809838 0.877646
vt 0.823231 0.883473
vt 0.818837 0.888159
vt 0.805566 0.893813
vt 0.800245 0.893266
vt 0.798978 0.886117
vt 0.824375 0.879141
vt 0.812372 0.891944
vt 0.797834 0.890449
vt 0.677290 0.781601
vt 0.665040 0.758392
vt 0.657786 0.785852
vt 0.670065 0.808949
vt 0.837616 0.737561
vt 0.826029 0.714169
vt 0.810743 0.696313
vt 0.822394 0.719778
vt 0.788802 0.716324
vt 0.777013 0.692845
vt 0.733876 0.704694
vt 0.745842 0.728125
vt 0.761839 0.818384
vt 0.749939 0.795326
vt 0.790923 0.771335
vt 0.802655 0.794491
vt 0.673072 0.803708
vt 0.685288 0.826731
vt 0.692891 0.728686
vt 0.705026 0.752018
vt 0.818774 0.741629
vt 0.830392 0.764908
vt 0.706802 0.807176
vt 0.718880 0.830185
vt 0.627567 0.754146
vt 0.644932 0.774431
vt 0.801324 0.652432
vt 0.763007 0.648492
vt 0.714004 0.661953
vt 0.667446 0.689207
vt 0.778809 0.737655
vt 0.810447 0.703910
vt 0.683249 0.778370
vt 0.635808 0.722952
vt 0.818688 0.672716
vt 0.732251 0.764910
vt 0.757036 0.783277
vt 0.762283 0.780206
vt 0.774036 0.732870
vt 0.729972 0.758665
vt 0.712703 0.661224
vt 0.759080 0.648484
vt 0.760502 0.770157
vt 0.754980 0.771674
vt 0.766777 0.772887
vt 0.764820 0.770601
vt 0.803979 0.700933
vt 0.668639 0.687018
vt 0.746167 0.778549
vt 0.745238 0.782064
vt 0.811779 0.671410
vt 0.638696 0.718955
vt 0.751514 0.784794
vt 0.795345 0.652212
vt 0.630896 0.748478
vt 0.765849 0.776403
vt 0.749733 0.774746
vt 0.647331 0.767676
vt 0.747195 0.784350
vt 0.683595 0.771404
vt 0.766584 0.766460
vt 0.778459 0.753795
vt 0.716335 0.780263
vt 0.730717 0.781742
vt 0.742260 0.738047
vt 0.724786 0.748276
vt 0.749109 0.776690
vt 0.781551 0.742087
vt 0.775034 0.734473
vt 0.712911 0.760942
vt 0.709818 0.772650
vt 0.760653 0.732995
vt 0.858136 0.972123
vt 0.859286 0.972241
vt 0.854591 0.975903
vt 0.854070 0.975294
vt 0.858610 0.974800
vt 0.857213 0.975618
vt 0.856665 0.972527
vt 0.859808 0.972850
vt 0.854318 0.974358
vt 0.855742 0.976022
vt 0.859560 0.973786
vt 0.855267 0.973345
vt 0.733813 0.734245
vn 0.847300 -0.524000 0.085700
vn 0.726100 -0.441800 0.526900
vn 0.189900 -0.931400 0.310600
vn 0.235500 -0.960800 0.146200
vn -0.050200 -0.292900 0.954800
vn -0.496700 -0.266400 0.826000
vn -0.265100 -0.867000 0.421800
vn -0.099100 -0.877200 0.469700
vn -0.938200 -0.342900 0.047300
vn -0.815400 -0.425200 -0.392900
vn -0.384100 -0.922700 -0.032500
vn -0.429700 -0.893300 0.131900
vn 0.729400 -0.581900 -0.359700
vn 0.192000 -0.981200 -0.020100
vn 0.397500 -0.357200 0.845200
vn 0.067400 -0.900800 0.429000
vn -0.821700 -0.284700 0.493600
vn -0.386200 -0.872900 0.298200
vn 0.404300 -0.600000 -0.690300
vn 0.071000 -0.987000 -0.143700
vn -0.486800 -0.509500 -0.709500
vn -0.040600 -0.573500 -0.818200
vn -0.095000 -0.976800 -0.191600
vn -0.261600 -0.953300 -0.150900
vn -0.492400 -0.086900 -0.866000
vn -0.858300 0.008000 -0.513000
vn -0.845400 0.059600 -0.530800
vn -0.475600 0.001300 -0.879700
vn 0.501300 -0.187700 -0.844700
vn 0.005100 -0.158500 -0.987300
vn 0.015700 -0.056400 -0.998300
vn 0.503100 -0.098000 -0.858600
vn -0.864400 0.166600 0.474300
vn -0.502200 0.187700 0.844100
vn -0.517300 0.095400 0.850400
vn -0.875600 0.114500 0.469200
vn 0.493300 0.086700 0.865500
vn 0.859300 -0.008300 0.511400
vn 0.860000 -0.061600 0.506500
vn 0.489300 -0.006700 0.872100
vn 0.863500 -0.166700 -0.476000
vn 0.861900 -0.113600 -0.494100
vn -0.994600 0.100700 -0.022500
vn -0.994100 0.101500 -0.037900
vn -0.005100 0.158500 0.987300
vn -0.016300 0.050600 0.998600
vn 0.994700 -0.101100 0.020300
vn 0.994900 -0.100300 0.004800
vn -0.103000 -0.983700 0.147500
vn 0.522900 0.147300 -0.839600
vn 0.871200 0.031800 -0.489900
vn -0.548800 -0.145400 0.823200
vn -0.895500 -0.020000 0.444600
vn -0.446400 0.245600 -0.860400
vn 0.043700 0.224700 -0.973400
vn 0.995500 -0.093800 -0.008300
vn -0.992800 0.107900 -0.051000
vn 0.472900 -0.249100 0.845100
vn -0.044300 -0.230500 0.972000
vn 0.853500 -0.197500 0.482200
vn -0.825400 0.204000 -0.526400
vn -0.809300 0.379300 -0.448600
vn -0.419500 0.538800 -0.730500
vn 0.074600 0.560500 -0.824800
vn 0.549800 0.440400 -0.709700
vn -0.575200 -0.432800 0.694100
vn -0.910200 -0.179700 0.373200
vn 0.838800 -0.357200 0.410800
vn 0.446500 -0.536500 0.716100
vn 0.887300 0.207100 -0.412100
vn -0.991900 0.118100 -0.046400
vn -0.075000 -0.565400 0.821300
vn 0.996500 -0.083600 -0.003700
vn 0.997100 -0.075700 0.004300
vn 0.829000 -0.480500 0.286100
vn -0.798400 0.514700 -0.312300
vn -0.401400 0.765500 -0.502800
vn 0.095300 0.820200 -0.564100
vn 0.567900 0.667200 -0.482000
vn -0.592900 -0.654400 0.469200
vn -0.920000 -0.303000 0.248500
vn 0.428800 -0.758100 0.491200
vn 0.898100 0.342500 -0.275800
vn -0.991300 0.126000 -0.038400
vn -0.095600 -0.823500 0.559100
vn 0.997300 -0.071300 0.014600
vn 0.825300 -0.550600 0.125200
vn -0.794400 0.591900 -0.136100
vn -0.394600 0.894900 -0.208300
vn 0.103100 0.968400 -0.226800
vn 0.574700 0.796600 -0.187400
vn -0.599400 -0.780100 0.179100
vn -0.923600 -0.373100 0.087500
vn 0.422300 -0.883800 0.201100
vn 0.902100 0.419800 -0.099600
vn -0.991000 0.130500 -0.028100
vn -0.103200 -0.969800 0.220900
vn -0.096700 -0.984300 -0.147200
vn -0.593900 -0.792800 -0.136700
vn 0.997100 -0.070800 0.025800
vn 0.828400 -0.557900 -0.050200
vn -0.797700 0.600500 0.056100
vn -0.400000 0.909500 0.113200
vn 0.096900 0.985200 0.141300
vn 0.569300 0.811100 0.134000
vn -0.920600 -0.380400 -0.087800
vn 0.427800 -0.896500 -0.114700
vn 0.898900 0.428300 0.092600
vn -0.991200 0.130900 -0.016900
vn -0.077100 -0.865200 -0.495400
vn -0.577100 -0.690800 -0.435600
vn 0.996600 -0.074500 0.036500
vn 0.837700 -0.501500 -0.216300
vn -0.807800 0.539100 0.238200
vn -0.416900 0.807200 0.417800
vn 0.077500 0.868100 0.490200
vn 0.552400 0.708800 0.438700
vn -0.911300 -0.324000 -0.253900
vn 0.444600 -0.794500 -0.413600
vn 0.888700 0.367000 0.274700
vn -0.991800 0.127300 -0.006300
vn -0.992700 0.120000 0.002300
vn -0.823500 0.416200 0.385500
vn -0.047100 -0.628600 -0.776300
vn -0.551300 -0.487900 -0.676700
vn 0.995600 -0.081700 0.045000
vn 0.852000 -0.389100 -0.350400
vn -0.443100 0.601900 0.664300
vn 0.047600 0.633200 0.772500
vn 0.526200 0.503600 0.685200
vn -0.897000 -0.211600 -0.388000
vn 0.470400 -0.591600 -0.654700
vn 0.873100 0.244100 0.422000
vn 0.854100 0.076400 0.514500
vn 0.994500 -0.091500 0.050400
vn -0.993900 0.110200 0.007600
vn -0.842400 0.248500 0.478000
vn -0.010600 -0.306500 -0.951800
vn -0.520000 -0.211700 -0.827400
vn 0.869300 -0.235800 -0.434300
vn -0.474800 0.321600 0.819200
vn 0.011200 0.312200 0.949900
vn 0.494500 0.223200 0.840000
vn -0.879700 -0.058400 -0.471900
vn 0.501700 -0.315400 -0.805500
vn 0.849500 -0.044800 0.525700
vn 0.994600 -0.099100 0.029800
vn -0.994600 0.102700 -0.013000
vn -0.862700 0.128900 0.488900
vn 0.013300 -0.080100 -0.996700
vn -0.486300 -0.018700 -0.873600
vn 0.870000 -0.126900 -0.476500
vn -0.502500 0.120400 0.856100
vn -0.013200 0.080700 0.996600
vn 0.479500 0.020700 0.877300
vn -0.856600 0.048300 -0.513600
vn 0.509400 -0.119800 -0.852100
vn 0.018400 -0.030700 -0.999400
vn 0.512300 -0.077000 -0.855300
vn 0.423400 -0.454700 -0.783500
vn -0.021900 -0.409300 -0.912100
vn 0.994700 -0.100900 0.021400
vn 0.851600 -0.072000 0.519100
vn 0.738600 -0.490100 0.462900
vn 0.865200 -0.501400 0.006800
vn -0.870100 0.102700 0.482100
vn -0.994700 0.100900 -0.021400
vn -0.947700 -0.317400 -0.032200
vn -0.840900 -0.329800 0.429000
vn -0.480500 0.023800 -0.876600
vn -0.472400 -0.363800 -0.802800
vn 0.870100 -0.102700 -0.482100
vn 0.748300 -0.488300 -0.448900
vn -0.512300 0.077000 0.855300
vn -0.516400 -0.364100 0.775100
vn 0.480500 -0.023800 0.876600
vn -0.018400 0.030700 0.999400
vn -0.061200 -0.410800 0.909700
vn 0.399300 -0.457000 0.794800
vn -0.851600 0.072000 -0.519100
vn -0.811400 -0.330100 -0.482400
vn 0.098200 -0.929500 -0.355500
vn -0.083500 -0.909100 -0.407900
vn 0.225700 -0.962100 0.153200
vn 0.277700 -0.960100 -0.033100
vn -0.463200 -0.884900 -0.049100
vn -0.420600 -0.896500 0.139300
vn -0.267600 -0.892400 -0.363400
vn 0.230400 -0.948100 -0.219000
vn -0.288500 -0.915300 0.281100
vn -0.102200 -0.936200 0.336400
vn 0.086600 -0.953300 0.289200
vn -0.406600 -0.883400 -0.232700
vn -0.099900 -0.993900 -0.046100
vn 0.994700 -0.100900 0.021500
vn 0.859000 -0.005200 0.511800
vn -0.004500 0.164400 0.986400
vn -0.501100 0.192800 0.843600
vn -0.994700 0.100900 -0.021300
vn -0.859200 0.005200 -0.511600
vn 0.863700 -0.169600 -0.474600
vn 0.493300 0.091900 0.865000
vn -0.863600 0.169600 0.474800
vn 0.501200 -0.192800 -0.843500
vn -0.493400 -0.091900 -0.864900
vn 0.004500 -0.164400 -0.986400
vn 0.018200 -0.999800 0.005100
vn -0.025100 -0.988000 -0.152100
vn -0.521300 0.821900 0.229700
vn -0.444200 0.825700 0.347600
vn 0.311000 -0.939400 0.144200
vn 0.145500 -0.982100 0.119700
vn -0.333800 0.846600 0.414300
vn -0.212300 0.879100 0.426600
vn 0.011500 -0.956700 -0.290700
vn -0.535100 0.841500 0.074100
vn 0.458200 -0.886000 0.071100
vn -0.098400 0.917800 0.384700
vn 0.098400 -0.917800 -0.384700
vn 0.212300 -0.879100 -0.426600
vn -0.311000 0.939400 -0.144300
vn -0.458300 0.886000 -0.071200
vn 0.535100 -0.841500 -0.074100
vn -0.011500 0.956700 0.290700
vn 0.333800 -0.846700 -0.414300
vn -0.145500 0.982100 -0.119700
vn 0.444200 -0.825700 -0.347600
vn 0.521300 -0.821900 -0.229700
vn 0.025100 0.988000 0.152100
vn -0.018200 0.999800 -0.005200
vn -0.366800 -0.895000 -0.253900
vn 0.463900 -0.134900 0.875500
vn 0.003200 -0.013200 0.999900
vn -0.246700 -0.927400 -0.281300
vn 0.020100 -0.993500 0.111700
vn -0.828800 0.227500 -0.511100
vn -0.463900 0.134900 -0.875500
vn -0.079600 -0.965800 0.246900
vn 0.028000 0.984600 0.172800
vn 0.815800 -0.207800 -0.539700
vn 0.453000 -0.108400 -0.884900
vn 0.127400 0.958900 0.253500
vn 0.526200 0.849500 0.037600
vn -0.966600 0.255400 0.020400
vn -0.815800 0.207800 0.539700
vn 0.507700 0.852400 -0.124900
vn 0.030500 -0.998500 -0.045400
vn -0.127400 -0.958900 -0.253500
vn -0.453000 0.108500 0.884900
vn -0.028000 -0.984600 -0.172800
vn 0.238100 0.923300 -0.301200
vn 0.079600 0.965800 -0.246900
vn -0.468100 -0.866900 -0.171200
vn 0.828800 -0.227500 0.511100
vn -0.526200 -0.849500 -0.037600
vn 0.966600 -0.255400 -0.020400
vn -0.003200 0.013200 -0.999900
vn -0.238100 -0.923300 0.301200
vn 0.399100 0.880600 -0.255500
vn -0.399100 -0.880600 0.255500
vn -0.507700 -0.852400 0.124900
vn -0.169900 0.126400 -0.977300
vn 0.297100 0.248700 -0.921900
vn 0.710600 0.314100 -0.629600
vn 0.946000 0.292000 -0.140900
vn 0.468100 0.866900 0.171200
vn -0.020100 0.993500 -0.111700
vn 0.366800 0.895000 0.253900
vn -0.297100 -0.248700 0.921900
vn 0.169900 -0.126400 0.977300
vn -0.710600 -0.314100 0.629600
vn 0.246700 0.927400 0.281300
vn -0.602300 -0.026200 -0.797800
vn -0.030500 0.998500 0.045400
vn 0.900200 0.181500 0.395700
vn 0.602300 0.026200 0.797800
vn -0.946000 -0.292000 0.140900
vn -0.900300 -0.181500 -0.395700
vn 0.585600 -0.012800 0.810500
vn -0.233500 -0.789600 0.567400
vn 0.138400 -0.840000 -0.524600
vn 0.957500 -0.063300 -0.281500
vn -0.957500 0.063300 0.281500
vn -0.585600 0.012800 -0.810500
vn -0.138400 0.840000 0.524600
vn 0.233500 0.789600 -0.567400
vn 0.794100 -0.543500 0.272000
vn 0.470000 -0.554500 0.686700
vn -0.715600 -0.681200 0.154400
vn -0.343100 -0.830600 -0.438600
vn 0.202800 0.919100 0.337900
vn 0.168600 0.985600 0.011000
vn -0.984100 0.155100 -0.086700
vn -0.947500 0.168400 0.271600
vn 0.492100 0.122800 0.861800
vn 0.445100 0.599600 0.665100
vn -0.913400 0.051100 0.403800
vn -0.905600 0.117300 0.407600
vn 0.389000 0.797300 -0.461400
vn 0.760200 0.649400 -0.015900
vn 0.117300 -0.731600 -0.671600
vn 0.460900 -0.713800 -0.527300
vn 0.967700 -0.150800 0.201800
vn 0.018300 -0.563700 -0.825700
vn 0.401500 -0.178700 0.898200
vn -0.878600 -0.159000 0.450300
vn 0.453300 0.466000 -0.759800
vn -0.455700 -0.167200 -0.874300
vn 0.958300 0.174700 0.226000
vn -0.000900 -0.420000 -0.907500
vn 0.166300 0.888800 0.427000
vn -0.803200 0.372900 -0.464500
vn -0.744800 0.491700 -0.451000
vn 0.783900 0.559900 -0.268300
vn 0.930000 -0.106900 -0.351700
vn -0.250600 -0.937500 -0.241200
vn -0.263700 -0.961200 0.080800
vn 0.958800 -0.283400 -0.019000
vn 0.890600 -0.103000 -0.442900
vn -0.316600 -0.142800 -0.937700
vn -0.226000 -0.573300 -0.787500
vn 0.894300 -0.062600 -0.443100
vn -0.452300 0.682300 0.574200
vn -0.959300 -0.245700 0.139200
vn -0.952300 -0.006200 0.305200
vn -0.274800 0.581600 0.765600
vn -0.211100 0.560900 0.800500
vn -0.921900 0.295800 -0.250100
vn 0.889600 0.020800 -0.456200
vn -0.518400 0.433500 -0.737100
vn 0.153600 0.683300 0.713800
vn -0.174900 -0.969100 -0.173700
vn -0.207200 0.487500 0.848100
vn -0.973400 0.027300 0.227500
vn 0.909700 0.396100 -0.124400
vn -0.360000 0.879500 -0.311200
vn -0.463900 0.794400 0.392100
vn 0.798800 0.461300 0.386000
vn 0.178100 -0.941800 0.285000
vn -0.755900 -0.002600 0.654700
vn -0.938500 0.018400 0.344600
vn -0.001900 -0.999900 0.008000
vn 0.785100 -0.210200 0.582600
vn -0.652600 0.039800 0.756600
vn -0.650700 0.106400 0.751800
vn 0.583800 -0.670700 0.457400
vn 0.023700 -0.850600 -0.525200
vn 0.300400 0.625300 -0.720300
vn -0.064300 0.703100 -0.708200
vn 0.567500 -0.771500 -0.287600
vn 0.972200 -0.020400 -0.233300
vn -0.244700 0.555700 -0.794500
vn 0.767800 0.102300 0.632500
vn -0.566500 0.307100 0.764700
vn 0.007200 -0.534200 -0.845300
vn -0.750900 0.247700 -0.612200
vn 0.922300 -0.339400 -0.184700
vn -0.319500 0.417800 -0.850500
vn 0.188100 -0.906100 0.378900
vn 0.495600 -0.686300 -0.532300
vn -0.933600 -0.352900 -0.061900
vn -0.972500 -0.225700 -0.057900
vn 0.696400 -0.054600 -0.715500
vn 0.891500 0.112700 -0.438700
vn -0.047800 0.992000 0.116600
vn -0.176700 0.967900 -0.178700
vn 0.622000 -0.051200 -0.781300
vn 0.618700 -0.091600 -0.780200
vn -0.444700 0.607400 -0.658200
vn -0.657700 0.199800 -0.726200
vn -0.267800 -0.596000 0.757000
vn -0.012200 -0.528500 0.848800
vn -0.718100 0.170000 0.674800
vn -0.756700 0.407900 0.510800
vn 0.062700 -0.519300 0.852300
vn -0.974900 -0.130100 0.180500
vn 0.595800 -0.172900 -0.784300
vn -0.844000 -0.333600 -0.419900
vn 0.331400 -0.702800 0.629500
vn -0.075500 0.985500 -0.151600
vn 0.098000 -0.448000 0.888600
vn -0.775200 0.141100 0.615700
vn -0.247000 0.502800 -0.828300
vn -0.300100 0.742100 -0.599400
vn 0.904000 0.418300 0.088500
vn 0.950800 0.225400 -0.212400
vn -0.289100 -0.492400 -0.820900
vn -0.358000 0.008400 -0.933700
vn 0.965600 0.051100 -0.254700
vn 0.949600 0.100200 -0.297200
vn -0.150500 -0.731200 -0.665400
vn 0.973000 -0.151300 -0.174200
vn -0.356200 -0.930900 0.080300
vn 0.430900 -0.426000 0.795500
vn -0.662600 0.675500 0.323300
vn 0.281600 0.435000 0.855300
vn -0.961400 -0.128200 0.243300
vn 0.318300 -0.558000 0.766300
vn 0.409600 -0.748400 0.521600
vn -0.886200 -0.457400 0.074000
vn -0.945500 -0.065800 0.318900
vn 0.105400 0.473500 0.874400
vn 0.114800 0.024000 0.993100
vn -0.954800 -0.034200 0.295300
vn -0.965300 0.040900 0.257900
vn 0.264200 0.877400 0.400400
vn -0.930900 0.177500 0.319000
vn 0.006200 0.582000 0.813200
vn 0.150400 -0.674600 0.722700
vn -0.856800 -0.493800 0.148200
vn 0.648400 0.651000 -0.394600
vn 0.374500 0.844200 -0.383400
vn 0.043600 0.383200 0.922600
vn 0.376800 0.249100 0.892200
vn 0.809400 -0.327600 -0.487400
vn 0.812600 0.186200 -0.552200
vn 0.451700 0.085500 0.888000
vn 0.480000 0.141800 0.865700
vn 0.734000 -0.592900 -0.331200
vn 0.412400 -0.128500 0.901900
vn 0.009000 -0.925100 -0.379500
vn -0.589400 -0.571700 0.570700
vn -0.579000 0.611900 -0.538800
vn -0.833700 0.265000 0.484500
vn -0.426100 -0.159200 -0.890600
vn -0.563200 -0.694600 0.447500
vn -0.274300 -0.837400 0.472800
vn -0.188300 -0.452100 -0.871800
vn -0.506100 -0.112100 -0.855100
vn -0.898500 0.301500 0.319100
vn -0.929900 -0.162300 0.330000
vn -0.491200 -0.076500 -0.867700
vn -0.471100 0.004300 -0.882000
vn -0.480700 0.784300 0.392000
vn -0.546300 0.126700 -0.827900
vn -0.881400 0.420700 0.214900
vn -0.538300 -0.798900 0.268100
vn -0.246300 -0.502000 -0.829000
vn 0.615600 -0.705500 -0.351100
vn 0.854300 -0.515400 0.066900
vn 0.536900 -0.776200 0.330500
vn 0.325200 -0.944800 -0.040100
vn -0.201900 0.721000 0.662800
vn -0.604100 0.722100 0.337000
vn -0.756300 0.321000 0.570000
vn -0.399700 0.320000 0.858900
vn 0.646600 0.197300 0.736800
vn 0.255800 0.528900 0.809200
vn 0.006200 0.149700 0.988700
vn 0.352700 -0.144300 0.924500
vn -0.854200 0.201500 -0.479200
vn -0.635200 -0.180700 -0.750900
vn -0.783800 -0.479400 -0.394600
vn -0.978100 -0.140500 -0.153700
vn 0.213400 -0.704400 -0.676900
vn -0.031400 -0.943800 -0.329000
vn 0.865700 -0.184900 0.465100
vn 0.546900 -0.483200 0.683600
vn -0.842900 0.532000 -0.081000
vn -0.968000 0.152400 0.199300
vn -0.244400 -0.512300 -0.823300
vn -0.437300 -0.773500 -0.458800
vn -0.097100 -0.498200 0.861600
vn 0.009000 -0.683500 0.729900
vn -0.824400 -0.496200 0.272300
vn -0.818800 -0.336100 0.465300
vn -0.307000 -0.935100 0.176500
vn -0.528900 -0.842100 0.105600
vn 0.003500 -0.843600 0.537000
vn -0.703200 -0.244000 0.667800
vn -0.718200 -0.681400 0.140700
vn -0.112200 -0.935700 0.334400
vn -0.508300 -0.244500 0.825700
vn -0.286500 -0.337600 0.896600
vn -0.288400 -0.947600 0.137500
vn -0.528000 -0.847000 0.060900
vn -0.732600 -0.673500 0.098700
vn -0.847200 -0.473400 0.240900
vn 0.053000 -0.675600 0.735300
vn 0.047100 -0.848600 0.526800
vn -0.505800 -0.201500 0.838800
vn -0.266200 -0.302000 0.915400
vn -0.841300 -0.300400 0.449400
vn -0.077900 -0.948200 0.308000
vn -0.061600 -0.475600 0.877500
vn -0.716300 -0.200800 0.668200
vn 0.883800 -0.467000 0.027000
vn 0.645900 -0.656500 -0.389600
vn 0.539200 -0.800700 -0.261100
vn 0.775600 -0.612400 0.152900
vn -0.569800 0.766500 0.296200
vn -0.169000 0.765400 0.621000
vn -0.270500 0.612100 0.743100
vn -0.668800 0.613200 0.420400
vn 0.287300 0.573900 0.766800
vn 0.676800 0.243400 0.694700
vn 0.569900 0.093400 0.816300
vn 0.182900 0.421800 0.888000
vn -0.600800 -0.133400 -0.788200
vn -0.819100 0.247600 -0.517300
vn -0.916500 0.097600 -0.388000
vn -0.699500 -0.280900 -0.657000
vn 0.245000 -0.655400 -0.714400
vn 0.140900 -0.799600 -0.583800
vn 0.895200 -0.137600 0.423900
vn 0.786900 -0.285100 0.547300
vn -0.807800 0.577000 -0.120500
vn -0.905200 0.424900 0.006400
vn -0.211300 -0.463900 -0.860300
vn -0.312500 -0.609300 -0.728700
vn -0.212400 -0.977100 -0.012800
vn 0.053300 -0.977800 0.202500
vn -0.184400 -0.161900 0.969400
vn -0.487000 -0.034900 0.872700
vn 0.218600 -0.633700 0.742000
vn 0.073900 -0.381100 0.921600
vn -0.910600 -0.159900 0.381000
vn -0.918100 -0.378300 0.117800
vn -0.515100 -0.850100 -0.109600
vn 0.211100 -0.852100 0.478800
vn -0.752800 -0.034200 0.657300
vn -0.773300 -0.630900 -0.061700
vn -0.613000 0.709400 0.347800
vn -0.325100 0.944800 0.040000
vn -0.536700 0.776200 -0.330600
vn -0.851700 0.519200 -0.070200
vn 0.204600 -0.717200 -0.666100
vn 0.399800 -0.319900 -0.859000
vn 0.756300 -0.320900 -0.570100
vn 0.606800 -0.718300 -0.340300
vn -0.644000 -0.193500 -0.740100
vn -0.352600 0.144400 -0.924600
vn -0.006100 -0.149600 -0.988700
vn -0.253200 -0.525100 -0.812500
vn 0.856900 -0.197700 0.476000
vn 0.978100 0.140600 0.153600
vn 0.783800 0.479500 0.394500
vn 0.637800 0.184500 0.747700
vn -0.210800 0.708200 0.673700
vn 0.031500 0.943800 0.328900
vn -0.863100 0.188700 -0.468400
vn -0.546800 0.483300 -0.683700
vn 0.845500 -0.528200 0.077800
vn 0.968000 -0.152300 -0.199400
vn 0.247000 0.516200 0.820100
vn 0.437400 0.773500 0.458600
vn -0.019700 0.681700 -0.731300
vn 0.088500 0.492800 -0.865600
vn 0.824400 0.327500 -0.461500
vn 0.830100 0.490800 -0.264800
vn 0.528800 0.843400 -0.094800
vn 0.302600 0.938400 -0.167100
vn -0.014000 0.845000 -0.534600
vn 0.706500 0.233600 -0.668100
vn 0.721800 0.679600 -0.130600
vn 0.103900 0.938900 -0.328100
vn 0.507800 0.234100 -0.829000
vn 0.281600 0.329000 -0.901300
vn 0.149300 0.103100 -0.983400
vn 0.475200 -0.033600 -0.879200
vn -0.284700 0.611200 -0.738500
vn -0.128800 0.339100 -0.931900
vn 0.931400 0.100900 -0.349700
vn 0.939500 0.336100 -0.066300
vn 0.505400 0.844200 0.178600
vn 0.179500 0.980900 0.074400
vn -0.276700 0.846400 -0.455100
vn 0.761400 -0.034400 -0.647300
vn 0.783500 0.608200 0.127000
vn -0.106700 0.981700 -0.157500
vn -0.883600 0.467300 -0.027300
vn -0.775500 0.612500 -0.153100
vn -0.539000 0.800800 0.260900
vn -0.645600 0.656800 0.389400
vn 0.570100 -0.766200 -0.296500
vn 0.668800 -0.613000 -0.420500
vn 0.270600 -0.611900 -0.743200
vn 0.169200 -0.765100 -0.621300
vn -0.287100 -0.573600 -0.767100
vn -0.182800 -0.421600 -0.888100
vn -0.569800 -0.093300 -0.816500
vn -0.676600 -0.243100 -0.695000
vn 0.601100 0.133700 0.787900
vn 0.699600 0.281100 0.656900
vn 0.916600 -0.097400 0.387800
vn 0.819400 -0.247200 0.517100
vn -0.140800 0.799700 0.583600
vn -0.244800 0.655700 0.714200
vn -0.786700 0.285300 -0.547400
vn -0.895000 0.137900 -0.424200
vn 0.905300 -0.424700 -0.006500
vn 0.808100 -0.576600 0.120200
vn 0.312600 0.609500 0.728500
vn 0.211500 0.464200 0.860000
vn -0.718600 0.488500 0.494900
vn -0.333500 0.487500 0.806900
vn 0.064100 -0.877200 -0.475800
vn -0.374100 -0.693300 -0.615900
vn -0.748300 -0.375800 -0.546600
vn -0.958000 -0.009900 -0.286500
vn 0.688700 -0.379800 0.617600
vn 0.677800 -0.696200 0.236400
vn 0.104800 0.303600 0.947000
vn -0.947100 0.306500 0.094700
vn 0.449200 -0.878300 -0.163800
vn 0.478900 -0.013900 0.877700
vn 0.778000 0.456800 0.431300
vn 0.976500 0.110500 0.185200
vn -0.212400 -0.701400 0.680300
vn -0.272500 -0.596600 0.754800
vn -0.623900 -0.700200 0.347000
vn -0.516700 -0.791200 0.327100
vn -0.029200 -0.186100 -0.982100
vn -0.383300 0.114300 -0.916500
vn 0.749900 -0.361100 -0.554300
vn 0.385500 -0.360100 -0.849500
vn -0.215500 -0.792000 0.571200
vn -0.683900 -0.595400 0.421500
vn -0.571400 0.760000 -0.309600
vn -0.355100 0.932200 0.069100
vn -0.281000 -0.844100 0.456600
vn -0.680800 -0.504800 0.530600
vn 0.424000 0.757200 0.496800
vn -0.391200 -0.843800 0.367300
vn -0.615400 -0.452700 0.645200
vn 0.966200 -0.188800 -0.175600
vn -0.581700 0.460600 -0.670400
vn -0.505100 -0.453000 0.734500
vn 0.009200 0.931200 0.364300
vn -0.379600 -0.505700 0.774700
vn 0.836800 -0.225200 0.499000
vn 0.825500 -0.555300 0.101200
vn -0.229700 0.679800 0.696500
vn 0.227600 0.487900 0.842700
vn -0.662500 -0.221000 -0.715800
vn -0.881300 0.160800 -0.444300
vn 0.618000 0.156600 0.770400
vn 0.587000 -0.745200 -0.316300
vn 0.185200 -0.744100 -0.641800
vn -0.869900 0.491000 -0.046500
vn -0.631400 0.680900 0.371000
vn -0.272100 -0.552200 -0.788000
vn -0.202700 -0.451300 -0.869000
vn 0.252800 -0.642500 -0.723400
vn -0.160500 0.776000 0.609900
vn -0.560700 0.777100 0.285700
vn 0.901900 -0.125500 0.413200
vn 0.684000 0.254900 0.683500
vn -0.591600 -0.121300 -0.797000
vn 0.653000 -0.643600 -0.399100
vn -0.798300 0.587900 -0.130300
vn 0.295100 0.584900 0.755500
vn 0.890700 -0.454400 0.016900
vn -0.809600 0.259000 -0.526600
vn -0.466000 -0.674200 0.572900
s 1
f 10/1/1 9/2/2 21/3/3 22/4/4
f 7/5/5 6/6/6 18/7/7 19/8/8
f 4/9/9 3/10/10 15/11/11 16/12/12
f 11/13/13 10/1/1 22/4/4 23/14/14
f 8/15/15 7/5/5 19/8/8 20/16/16
f 5/17/17 4/9/9 16/12/12 17/18/18
f 12/19/19 11/13/13 23/14/14 24/20/20
f 2/21/21 1/22/22 13/23/23 14/24/24
f 9/2/2 8/15/15 20/16/16 21/3/3
f 6/6/6 5/17/17 17/18/18 18/7/7
f 1/22/22 12/19/19 24/20/20 13/23/23
f 3/10/10 2/21/21 14/24/24 15/11/11
f 195/25/25 203/26/26 34/27/27 35/28/28
f 196/29/29 206/30/30 36/31/31 37/32/32
f 197/33/33 204/34/34 31/35/35 32/36/36
f 198/37/37 205/38/38 28/39/39 29/40/40
f 206/30/30 195/25/25 35/28/28 36/31/31
f 199/41/41 196/29/29 37/32/32 26/42/42
f 200/43/43 197/33/33 32/36/36 33/44/44
f 201/45/45 198/37/37 29/40/40 30/46/46
f 202/47/47 199/41/41 26/42/42 27/48/48
f 203/26/26 200/43/43 33/44/44 34/27/27
f 204/34/34 201/49/45 30/50/46 31/35/35
f 205/38/38 202/47/47 27/48/48 28/39/39
f 17/18/18 16/12/12 25/51/49
f 24/20/20 23/14/14 25/51/49
f 14/24/24 13/23/23 25/51/49
f 21/3/3 20/16/16 25/51/49
f 18/7/7 17/18/18 25/51/49
f 13/23/23 24/20/20 25/51/49
f 15/11/11 14/24/24 25/51/49
f 22/4/4 21/3/3 25/51/49
f 19/8/8 18/7/7 25/51/49
f 16/12/12 15/11/11 25/51/49
f 23/14/14 22/4/4 25/51/49
f 20/16/16 19/8/8 25/51/49
f 26/42/42 37/32/32 49/52/50 38/53/51
f 32/36/36 31/35/35 43/54/52 44/55/53
f 36/31/31 35/28/28 47/56/54 48/57/55
f 27/48/48 26/42/42 38/53/51 39/58/56
f 33/44/44 32/36/36 44/55/53 45/59/57
f 30/46/46 29/40/40 41/60/58 42/61/59
f 28/39/39 27/48/48 39/58/56 40/62/60
f 34/27/27 33/44/44 45/59/57 46/63/61
f 37/32/32 36/31/31 48/57/55 49/52/50
f 31/35/35 30/50/46 42/64/59 43/54/52
f 29/40/40 28/39/39 40/62/60 41/60/58
f 35/28/28 34/27/27 46/63/61 47/56/54
f 47/56/54 46/63/61 58/65/62 59/66/63
f 49/52/50 48/57/55 60/67/64 61/68/65
f 44/55/53 43/54/52 55/69/66 56/70/67
f 41/60/58 40/62/60 52/71/68 53/72/69
f 48/57/55 47/56/54 59/66/63 60/67/64
f 38/53/51 49/52/50 61/68/65 50/73/70
f 45/59/57 44/55/53 56/70/67 57/74/71
f 42/61/59 41/60/58 53/72/69 54/75/72
f 39/58/56 38/53/51 50/73/70 51/76/73
f 46/63/61 45/59/57 57/74/71 58/65/62
f 43/54/52 42/64/59 54/77/72 55/69/66
f 40/62/60 39/58/56 51/76/73 52/71/68
f 52/71/68 51/76/73 63/78/74 64/79/75
f 59/66/63 58/65/62 70/80/76 71/81/77
f 61/68/65 60/67/64 72/82/78 73/83/79
f 56/70/67 55/69/66 67/84/80 68/85/81
f 53/72/69 52/71/68 64/79/75 65/86/82
f 60/67/64 59/66/63 71/81/77 72/82/78
f 50/73/70 61/68/65 73/83/79 62/87/83
f 57/74/71 56/70/67 68/85/81 69/88/84
f 54/75/72 53/72/69 65/86/82 66/89/85
f 51/76/73 50/73/70 62/87/83 63/78/74
f 58/65/62 57/74/71 69/88/84 70/80/76
f 55/69/66 54/77/72 66/90/85 67/84/80
f 64/79/75 63/78/74 75/91/86 76/92/87
f 71/81/77 70/80/76 82/93/88 83/94/89
f 73/83/79 72/82/78 84/95/90 85/96/91
f 68/85/81 67/84/80 79/97/92 80/98/93
f 65/86/82 64/79/75 76/92/87 77/99/94
f 72/82/78 71/81/77 83/94/89 84/95/90
f 62/87/83 73/83/79 85/96/91 74/100/95
f 69/88/84 68/85/81 80/98/93 81/101/96
f 66/89/85 65/86/82 77/99/94 78/102/97
f 63/78/74 62/87/83 74/100/95 75/91/86
f 70/80/76 69/88/84 81/101/96 82/93/88
f 67/84/80 66/90/85 78/103/97 79/97/92
f 79/97/92 78/103/97 90/104/98 91/105/99
f 76/92/87 75/91/86 87/106/100 88/107/101
f 83/94/89 82/93/88 94/108/102 95/109/103
f 85/96/91 84/95/90 96/110/104 97/111/105
f 80/98/93 79/97/92 91/105/99 92/112/106
f 77/99/94 76/92/87 88/107/101 89/113/107
f 84/95/90 83/94/89 95/109/103 96/110/104
f 74/100/95 85/96/91 97/111/105 86/114/108
f 81/101/96 80/98/93 92/112/106 93/115/109
f 78/102/97 77/99/94 89/113/107 90/116/98
f 75/91/86 74/100/95 86/114/108 87/106/100
f 82/93/88 81/101/96 93/115/109 94/108/102
f 91/105/99 90/104/98 102/117/110 103/118/111
f 88/107/101 87/106/100 99/119/112 100/120/113
f 95/109/103 94/108/102 106/121/114 107/122/115
f 97/111/105 96/110/104 108/123/116 109/124/117
f 92/112/106 91/105/99 103/118/111 104/125/118
f 89/113/107 88/107/101 100/120/113 101/126/119
f 96/110/104 95/109/103 107/122/115 108/123/116
f 86/114/108 97/111/105 109/124/117 98/127/120
f 93/115/109 92/112/106 104/125/118 105/128/121
f 90/116/98 89/113/107 101/126/119 102/129/110
f 87/106/100 86/114/108 98/127/120 99/119/112
f 94/108/102 93/115/109 105/128/121 106/121/114
f 106/121/114 105/128/121 117/130/122 118/131/123
f 103/118/111 102/117/110 114/132/124 115/133/125
f 100/120/113 99/119/112 111/134/126 112/135/127
f 107/122/115 106/121/114 118/131/123 119/136/128
f 109/124/117 108/123/116 120/137/129 121/138/130
f 104/125/118 103/118/111 115/133/125 116/139/131
f 101/126/119 100/120/113 112/135/127 113/140/132
f 108/123/116 107/122/115 119/136/128 120/137/129
f 98/127/120 109/124/117 121/138/130 110/141/133
f 105/128/121 104/125/118 116/139/131 117/130/122
f 102/129/110 101/126/119 113/140/132 114/142/124
f 99/119/112 98/127/120 110/141/133 111/134/126
f 111/134/126 110/141/133 122/143/134 123/144/135
f 118/131/123 117/130/122 129/145/136 130/146/137
f 115/133/125 114/132/124 126/147/138 127/148/139
f 112/135/127 111/134/126 123/144/135 124/149/140
f 119/136/128 118/131/123 130/146/137 131/150/141
f 121/138/130 120/137/129 132/151/142 133/152/143
f 116/139/131 115/133/125 127/148/139 128/153/144
f 113/140/132 112/135/127 124/149/140 125/154/145
f 120/137/129 119/136/128 131/150/141 132/151/142
f 110/141/133 121/138/130 133/152/143 122/143/134
f 117/130/122 116/139/131 128/153/144 129/145/136
f 114/142/124 113/140/132 125/154/145 126/155/138
f 123/144/135 122/143/134 134/156/146 135/157/147
f 130/146/137 129/145/136 141/158/148 142/159/149
f 127/148/139 126/147/138 138/160/150 139/161/151
f 124/149/140 123/144/135 135/157/147 136/162/152
f 131/150/141 130/146/137 142/159/149 143/163/153
f 133/152/143 132/151/142 144/164/154 145/165/155
f 128/153/144 127/148/139 139/161/151 140/166/156
f 125/154/145 124/149/140 136/162/152 137/167/157
f 132/151/142 131/150/141 143/163/153 144/164/154
f 122/143/134 133/152/143 145/165/155 134/156/146
f 129/145/136 128/153/144 140/166/156 141/158/148
f 126/155/138 125/154/145 137/167/157 138/168/150
f 180/169/158 181/170/159 149/171/160 150/172/161
f 178/173/162 179/174/163 146/175/164 147/176/165
f 176/177/166 177/178/167 153/179/168 154/180/169
f 175/181/170 180/182/158 150/183/161 151/184/171
f 174/185/172 178/173/162 147/176/165 148/186/173
f 173/187/174 176/177/166 154/180/169 155/188/175
f 171/189/176 172/190/177 156/191/178 157/192/179
f 182/193/180 175/181/170 151/184/171 152/194/181
f 181/170/159 174/185/172 148/186/173 149/171/160
f 172/190/177 173/187/174 155/188/175 156/191/178
f 179/174/163 171/189/176 157/192/179 146/175/164
f 177/178/167 182/193/180 152/194/181 153/179/168
f 150/195/161 149/196/160 161/197/182 162/198/183
f 147/199/165 146/200/164 158/201/184 159/202/185
f 154/203/169 153/204/168 165/205/186 166/206/187
f 151/207/171 150/195/161 162/198/183 163/208/188
f 148/209/173 147/199/165 159/202/185 160/210/189
f 155/211/175 154/203/169 166/206/187 167/212/190
f 157/213/179 156/214/178 168/215/191 169/216/192
f 152/217/181 151/207/171 163/208/188 164/218/193
f 149/196/160 148/209/173 160/210/189 161/197/182
f 156/214/178 155/211/175 167/212/190 168/215/191
f 146/200/164 157/213/179 169/216/192 158/201/184
f 153/204/168 152/217/181 164/218/193 165/205/186
f 138/168/150 137/167/157 181/170/159 180/169/158
f 135/157/147 134/156/146 179/174/163 178/173/162
f 142/159/149 141/158/148 177/178/167 176/177/166
f 139/161/151 138/160/150 180/182/158 175/181/170
f 136/162/152 135/157/147 178/173/162 174/185/172
f 143/163/153 142/159/149 176/177/166 173/187/174
f 145/165/155 144/164/154 172/190/177 171/189/176
f 140/166/156 139/161/151 175/181/170 182/193/180
f 137/167/157 136/162/152 174/185/172 181/170/159
f 144/164/154 143/163/153 173/187/174 172/190/177
f 134/156/146 145/165/155 171/189/176 179/174/163
f 141/158/148 140/166/156 182/193/180 177/178/167
f 165/205/186 164/218/193 170/219/194
f 162/198/183 161/197/182 170/219/194
f 159/202/185 158/201/184 170/219/194
f 166/206/187 165/205/186 170/219/194
f 163/208/188 162/198/183 170/219/194
f 160/210/189 159/202/185 170/219/194
f 167/212/190 166/206/187 170/219/194
f 169/216/192 168/215/191 170/219/194
f 164/218/193 163/208/188 170/219/194
f 161/197/182 160/210/189 170/219/194
f 168/215/191 167/212/190 170/219/194
f 158/201/184 169/216/192 170/219/194
f 9/220/2 10/221/1 193/222/195 192/223/196
f 6/224/6 7/225/5 191/226/197 190/227/198
f 3/228/10 4/229/9 189/230/199 188/231/200
f 10/221/1 11/232/13 187/233/201 193/222/195
f 7/234/5 8/235/15 186/236/202 191/237/197
f 4/229/9 5/238/17 185/239/203 189/230/199
f 11/232/13 12/240/19 184/241/204 187/233/201
f 1/242/22 2/243/21 183/244/205 194/245/206
f 8/235/15 9/220/2 192/223/196 186/236/202
f 5/238/17 6/224/6 190/227/198 185/239/203
f 12/240/19 1/242/22 194/245/206 184/241/204
f 2/243/21 3/228/10 188/231/200 183/244/205
f 192/223/196 193/222/195 202/47/47 205/38/38
f 190/227/198 191/226/197 201/49/45 204/34/34
f 188/231/200 189/230/199 200/43/43 203/26/26
f 193/222/195 187/233/201 199/41/41 202/47/47
f 191/237/197 186/236/202 198/37/37 201/45/45
f 189/230/199 185/239/203 197/33/33 200/43/43
f 187/233/201 184/241/204 196/29/29 199/41/41
f 194/245/206 183/244/205 195/25/25 206/30/30
f 186/236/202 192/223/196 205/38/38 198/37/37
f 185/239/203 190/227/198 204/34/34 197/33/33
f 184/241/204 194/245/206 206/30/30 196/29/29
f 183/244/205 188/231/200 203/26/26 195/25/25
f 211/246/207 214/247/208 226/248/209 223/249/210
f 218/250/211 208/251/212 220/252/213 230/253/214
f 214/247/208 217/254/215 229/255/216 226/248/209
f 207/256/217 218/250/211 230/253/214 219/257/218
f 210/258/219 213/259/220 225/260/221 222/261/222
f 215/262/223 207/256/217 219/257/218 227/263/224
f 213/259/220 216/264/225 228/265/226 225/260/221
f 217/254/215 210/258/219 222/261/222 229/255/216
f 209/266/227 212/267/228 224/268/229 221/269/230
f 212/267/228 215/262/223 227/263/224 224/268/229
f 216/264/225 209/266/227 221/269/230 228/265/226
f 208/251/212 211/246/207 223/249/210 220/252/213
f 248/270/231 269/271/232 276/272/233 244/273/234
f 240/274/235 277/275/236 267/276/237 254/277/238
f 259/278/239 270/279/240 268/280/241 256/281/242
f 260/282/243 271/283/244 275/284/245 257/285/246
f 246/286/247 271/283/244 277/275/236 240/274/235
f 239/287/248 278/288/249 275/284/245 250/289/250
f 261/290/251 276/272/233 269/271/232 258/291/252
f 244/273/234 276/272/233 278/288/249 239/287/248
f 237/292/253 273/293/254 269/271/232 248/270/231
f 243/294/255 272/295/256 273/293/254 237/292/253
f 254/277/238 267/276/237 274/296/257 233/297/258
f 257/285/246 275/284/245 278/288/249 264/298/259
f 253/299/260 268/280/241 270/279/240 247/300/261
f 264/298/259 278/288/249 276/272/233 261/290/251
f 247/300/261 270/279/240 272/295/256 243/294/255
f 233/297/258 274/296/257 268/280/241 253/299/260
f 253/299/260 247/300/261 259/278/239 256/281/242
f 218/250/211 242/301/262 232/302/263 208/251/212
f 211/246/207 235/303/264 238/304/265 214/247/208
f 239/287/248 250/289/250 257/285/246 264/298/259
f 246/286/247 240/274/235 263/305/266 260/282/243
f 250/289/250 246/286/247 260/282/243 257/285/246
f 237/292/253 248/270/231 258/291/252 265/306/267
f 244/273/234 239/287/248 264/298/259 261/290/251
f 240/274/235 254/277/238 255/307/268 263/305/266
f 248/270/231 244/273/234 261/290/251 258/291/252
f 228/265/226 252/308/269 249/309/270 225/260/221
f 208/251/212 232/302/263 235/303/264 211/246/207
f 221/269/230 245/310/271 252/308/269 228/265/226
f 254/277/238 233/297/258 266/311/272 255/307/268
f 207/256/217 231/312/273 242/301/262 218/250/211
f 243/294/255 237/292/253 265/306/267 262/313/274
f 214/247/208 238/304/265 241/314/275 217/254/215
f 233/297/258 253/299/260 256/281/242 266/311/272
f 217/254/215 241/314/275 234/315/276 210/258/219
f 247/300/261 243/294/255 262/313/274 259/278/239
f 213/259/220 249/309/270 252/308/269 216/264/225
f 225/260/221 249/309/270 234/315/276 222/261/222
f 216/264/225 252/308/269 245/310/271 209/266/227
f 212/267/228 236/316/277 251/317/278 215/262/223
f 224/268/229 236/316/277 245/310/271 221/269/230
f 223/249/210 235/303/264 232/302/263 220/252/213
f 215/262/223 251/317/278 231/312/273 207/256/217
f 210/258/219 234/315/276 249/309/270 213/259/220
f 230/253/214 242/301/262 231/312/273 219/257/218
f 229/255/216 241/314/275 238/304/265 226/248/209
f 209/266/227 245/310/271 236/316/277 212/267/228
f 222/261/222 234/315/276 241/314/275 229/255/216
f 227/263/224 251/317/278 236/316/277 224/268/229
f 220/252/213 232/302/263 242/301/262 230/253/214
f 226/248/209 238/304/265 235/303/264 223/249/210
f 219/257/218 231/312/273 251/317/278 227/263/224
f 266/311/272 274/296/257 267/276/237 255/307/268
f 265/306/267 273/293/254 272/295/256 262/313/274
f 250/289/250 275/284/245 271/283/244 246/286/247
f 258/291/252 269/271/232 273/293/254 265/306/267
f 263/305/266 277/275/236 271/283/244 260/282/243
f 256/281/242 268/280/241 274/296/257 266/311/272
f 262/313/274 272/295/256 270/279/240 259/278/239
f 255/307/268 267/276/237 277/275/236 263/305/266
f 280/318/279 282/319/280 281/320/281 279/321/282
f 282/319/280 286/322/283 285/323/284 281/320/281
f 286/322/283 284/324/285 283/325/286 285/323/284
f 284/324/285 280/318/279 279/321/282 283/325/286
f 279/321/282 281/320/281 285/323/284 283/325/286
f 284/324/285 286/322/283 282/319/280 280/318/279
f 291/326/287 290/327/288 302/328/289 303/329/290
f 298/330/291 297/331/292 309/332/293 310/333/294
f 288/334/295 287/335/296 299/336/297 300/337/298
f 295/338/299 294/339/300 306/340/301 307/341/302
f 292/342/303 291/326/287 303/329/290 304/343/304
f 287/335/296 298/330/291 310/333/294 299/336/297
f 289/344/305 288/334/295 300/337/298 301/345/306
f 296/346/307 295/338/299 307/341/302 308/347/308
f 293/348/309 292/342/303 304/343/304 305/349/310
f 290/327/288 289/344/305 301/345/306 302/328/289
f 297/331/292 296/346/307 308/347/308 309/332/293
f 294/339/300 293/348/309 305/349/310 306/340/301
f 315/350/311 327/351/312 326/352/313 314/353/314
f 322/354/315 334/355/316 333/356/317 321/357/318
f 312/358/319 324/359/320 323/360/321 311/361/322
f 319/362/323 331/363/324 330/364/325 318/365/326
f 316/366/327 328/367/328 327/351/312 315/350/311
f 311/361/322 323/360/321 334/355/316 322/354/315
f 313/368/329 325/369/330 324/359/320 312/358/319
f 320/370/331 332/371/332 331/363/324 319/362/323
f 317/372/333 329/373/334 328/367/328 316/366/327
f 314/353/314 326/352/313 325/369/330 313/368/329
f 321/357/318 333/356/317 332/371/332 320/370/331
f 318/365/326 330/364/325 329/373/334 317/372/333
f 287/335/296 311/361/322 322/354/315 298/330/291
f 292/342/303 316/366/327 315/350/311 291/326/287
f 306/340/301 330/364/325 331/363/324 307/341/302
f 299/336/297 323/360/321 324/359/320 300/337/298
f 293/348/309 317/372/333 316/366/327 292/342/303
f 307/341/302 331/363/324 332/371/332 308/347/308
f 300/337/298 324/359/320 325/369/330 301/345/306
f 294/339/300 318/365/326 317/372/333 293/348/309
f 308/347/308 332/371/332 333/356/317 309/332/293
f 301/345/306 325/369/330 326/352/313 302/328/289
f 295/338/299 319/362/323 318/365/326 294/339/300
f 309/332/293 333/356/317 334/355/316 310/333/294
f 288/334/295 312/358/319 311/361/322 287/335/296
f 302/328/289 326/352/313 327/351/312 303/329/290
f 296/346/307 320/370/331 319/362/323 295/338/299
f 310/333/294 334/355/316 323/360/321 299/336/297
f 289/344/305 313/368/329 312/358/319 288/334/295
f 303/329/290 327/351/312 328/367/328 304/343/304
f 297/331/292 321/357/318 320/370/331 296/346/307
f 290/327/288 314/353/314 313/368/329 289/344/305
f 304/343/304 328/367/328 329/373/334 305/349/310
f 298/330/291 322/354/315 321/357/318 297/331/292
f 291/326/287 315/350/311 314/353/314 290/327/288
f 305/349/310 329/373/334 330/364/325 306/340/301
f 339/374/335 351/375/336 350/376/337 338/377/338
f 346/378/339 358/379/340 357/380/341 345/381/342
f 336/382/343 348/383/344 347/384/345 335/385/346
f 343/386/347 355/387/348 354/388/349 342/389/350
f 340/390/351 352/391/352 351/375/336 339/374/335
f 335/385/346 347/384/345 358/379/340 346/378/339
f 337/392/353 349/393/354 348/383/344 336/382/343
f 344/394/355 356/395/356 355/387/348 343/386/347
f 341/396/357 353/397/358 352/391/352 340/390/351
f 338/377/338 350/376/337 349/393/354 337/392/353
f 345/381/342 357/380/341 356/395/356 344/394/355
f 342/389/350 354/388/349 353/397/358 341/396/357
f 363/398/359 362/399/360 374/400/361 375/401/362
f 370/402/363 369/403/364 381/404/365 382/405/366
f 360/406/367 359/407/368 371/408/369 372/409/370
f 367/410/371 366/411/372 378/412/373 379/413/374
f 364/414/375 363/398/359 375/401/362 376/415/376
f 359/407/368 370/402/363 382/405/366 371/408/369
f 361/416/377 360/406/367 372/409/370 373/417/378
f 368/418/379 367/410/371 379/413/374 380/419/380
f 365/420/381 364/414/375 376/415/376 377/421/382
f 362/399/360 361/416/377 373/417/378 374/400/361
f 369/403/364 368/418/379 380/419/380 381/404/365
f 366/411/372 365/420/381 377/421/382 378/412/373
f 335/385/346 346/378/339 370/402/363 359/407/368
f 340/390/351 339/374/335 363/398/359 364/414/375
f 354/388/349 355/387/348 379/413/374 378/412/373
f 347/384/345 348/383/344 372/409/370 371/408/369
f 341/396/357 340/390/351 364/414/375 365/420/381
f 355/387/348 356/395/356 380/419/380 379/413/374
f 348/383/344 349/393/354 373/417/378 372/409/370
f 342/389/350 341/396/357 365/420/381 366/411/372
f 356/395/356 357/380/341 381/404/365 380/419/380
f 349/393/354 350/376/337 374/400/361 373/417/378
f 343/386/347 342/389/350 366/411/372 367/410/371
f 357/380/341 358/379/340 382/405/366 381/404/365
f 336/382/343 335/385/346 359/407/368 360/406/367
f 350/376/337 351/375/336 375/401/362 374/400/361
f 344/394/355 343/386/347 367/410/371 368/418/379
f 358/379/340 347/384/345 371/408/369 382/405/366
f 337/392/353 336/382/343 360/406/367 361/416/377
f 351/375/336 352/391/352 376/415/376 375/401/362
f 345/381/342 344/394/355 368/418/379 369/403/364
f 338/377/338 337/392/353 361/416/377 362/399/360
f 352/391/352 353/397/358 377/421/382 376/415/376
f 346/378/339 345/381/342 369/403/364 370/402/363
f 339/374/335 338/377/338 362/399/360 363/398/359
f 353/397/358 354/388/349 378/412/373 377/421/382
f 389/422/383 388/423/384 395/424/385 396/425/386
f 384/426/387 383/427/388 390/428/389 391/429/390
f 383/427/388 389/422/383 396/425/386 390/428/389
f 385/430/391 384/426/387 391/429/390 392/431/392
f 386/432/393 385/430/391 392/431/392 393/433/394
f 388/423/384 387/434/395 394/435/396 395/424/385
f 403/436/397 410/437/398 409/438/399 402/439/400
f 398/440/401 405/441/402 404/442/403 397/443/404
f 397/443/404 404/442/403 410/437/398 403/436/397
f 399/444/405 406/445/406 405/441/402 398/440/401
f 400/446/407 407/447/408 406/445/406 399/444/405
f 402/439/400 409/438/399 408/448/409 401/449/410
f 383/427/388 397/443/404 403/436/397 389/422/383
f 390/428/389 404/442/403 405/441/402 391/429/390
f 391/429/390 405/441/402 406/445/406 392/431/392
f 394/435/396 408/448/409 409/438/399 395/424/385
f 392/431/392 406/445/406 407/447/408 393/433/394
f 395/424/385 409/438/399 410/437/398 396/425/386
f 384/426/387 398/440/401 397/443/404 383/427/388
f 396/425/386 410/437/398 404/442/403 390/428/389
f 385/430/391 399/444/405 398/440/401 384/426/387
f 388/423/384 402/439/400 401/449/410 387/434/395
f 386/432/393 400/446/407 399/444/405 385/430/391
f 389/422/383 403/436/397 402/439/400 388/423/384
f 387/434/395 401/449/410 408/448/409 394/435/396
f 393/433/394 407/447/408 400/446/407 386/432/393
f 417/450/411 416/451/412 423/452/413 424/453/414
f 412/454/415 411/455/416 418/456/417 419/457/418
f 411/455/416 417/450/411 424/453/414 418/456/417
f 413/458/419 412/454/415 419/457/418 420/459/420
f 414/460/421 413/458/419 420/459/420 421/461/422
f 416/451/412 415/462/423 422/463/424 423/452/413
f 431/464/425 438/465/426 437/466/427 430/467/428
f 426/468/429 433/469/430 432/470/431 425/471/432
f 425/471/432 432/470/431 438/465/426 431/464/425
f 427/472/433 434/473/434 433/469/430 426/468/429
f 428/474/435 435/475/436 434/473/434 427/472/433
f 430/467/428 437/466/427 436/476/437 429/477/438
f 411/455/416 425/471/432 431/464/425 417/450/411
f 418/456/417 432/470/431 433/469/430 419/457/418
f 419/457/418 433/469/430 434/473/434 420/459/420
f 422/463/424 436/476/437 437/466/427 423/452/413
f 420/459/420 434/473/434 435/475/436 421/461/422
f 423/452/413 437/466/427 438/465/426 424/453/414
f 412/454/415 426/468/429 425/471/432 411/455/416
f 424/453/414 438/465/426 432/470/431 418/456/417
f 413/458/419 427/472/433 426/468/429 412/454/415
f 416/451/412 430/467/428 429/477/438 415/462/423
f 414/460/421 428/474/435 427/472/433 413/458/419
f 417/450/411 431/464/425 430/467/428 416/451/412
f 415/462/423 429/477/438 436/476/437 422/463/424
f 421/461/422 435/475/436 428/474/435 414/460/421
f 443/478/439 442/479/440 454/480/441 455/481/442
f 450/482/443 449/483/444 461/484/445 462/485/446
f 440/486/447 439/487/448 451/488/449 452/489/450
f 447/490/451 446/491/452 458/492/453 459/493/454
f 444/494/455 443/478/439 455/481/442 456/495/456
f 439/487/448 450/482/443 462/485/446 451/488/449
f 441/496/457 440/486/447 452/489/450 453/497/458
f 448/498/459 447/490/451 459/493/454 460/499/460
f 445/500/461 444/494/455 456/495/456 457/501/462
f 442/479/440 441/496/457 453/497/458 454/480/441
f 449/483/444 448/498/459 460/499/460 461/484/445
f 446/491/452 445/500/461 457/501/462 458/492/453
f 453/497/458 452/489/450 464/502/463 465/503/464
f 460/499/460 459/493/454 471/504/465 472/505/466
f 457/501/462 456/495/456 468/506/467 469/507/468
f 454/480/441 453/497/458 465/503/464 466/508/469
f 461/484/445 460/499/460 472/505/466 473/509/470
f 458/492/453 457/501/462 469/507/468 470/510/471
f 455/481/442 454/480/441 466/508/469 467/511/472
f 462/485/446 461/484/445 473/509/470 474/512/473
f 452/489/450 451/488/449 463/513/474 464/502/463
f 459/493/454 458/492/453 470/510/471 471/504/465
f 456/495/456 455/481/442 467/511/472 468/506/467
f 451/488/449 462/485/446 474/512/473 463/513/474
f 463/513/474 474/512/473 486/514/475 475/515/476
f 465/503/464 464/502/463 476/516/477 477/517/478
f 472/505/466 471/504/465 483/518/479 484/519/480
f 469/507/468 468/506/467 480/520/481 481/521/482
f 466/508/469 465/503/464 477/517/478 478/522/483
f 473/509/470 472/505/466 484/519/480 485/523/484
f 470/510/471 469/507/468 481/521/482 482/524/485
f 467/511/472 466/508/469 478/522/483 479/525/486
f 474/512/473 473/509/470 485/523/484 486/514/475
f 464/502/463 463/513/474 475/515/476 476/516/477
f 471/504/465 470/510/471 482/524/485 483/518/479
f 468/506/467 467/511/472 479/525/486 480/520/481
f 512/526/487 511/527/488 491/528/489 490/529/490
f 514/530/491 513/531/492 498/532/493 497/533/494
f 516/534/495 515/535/496 488/536/497 487/537/498
f 518/538/499 517/539/500 495/540/501 494/541/502
f 511/527/488 519/542/503 492/543/504 491/528/489
f 513/531/492 516/534/495 487/537/498 498/532/493
f 515/535/496 520/544/505 489/545/506 488/536/497
f 517/539/500 521/546/507 496/547/508 495/540/501
f 519/542/503 522/548/509 493/549/510 492/543/504
f 520/544/505 512/526/487 490/529/490 489/545/506
f 521/546/507 514/530/491 497/533/494 496/547/508
f 522/548/509 518/538/499 494/541/502 493/549/510
f 491/528/489 492/543/504 504/550/511 503/551/512
f 498/532/493 487/537/498 499/552/513 510/553/514
f 488/536/497 489/545/506 501/554/515 500/555/516
f 495/540/501 496/547/508 508/556/517 507/557/518
f 492/543/504 493/549/510 505/558/519 504/550/511
f 489/545/506 490/529/490 502/559/520 501/554/515
f 496/547/508 497/533/494 509/560/521 508/556/517
f 493/549/510 494/541/502 506/561/522 505/558/519
f 490/529/490 491/528/489 503/551/512 502/559/520
f 497/533/494 498/532/493 510/553/514 509/560/521
f 487/537/498 488/536/497 500/555/516 499/552/513
f 494/541/502 495/540/501 507/557/518 506/561/522
f 445/500/461 446/491/452 518/538/499 522/548/509
f 448/498/459 449/483/444 514/530/491 521/546/507
f 441/496/457 442/479/440 512/526/487 520/544/505
f 444/494/455 445/500/461 522/548/509 519/542/503
f 447/490/451 448/498/459 521/546/507 517/539/500
f 440/486/447 441/496/457 520/544/505 515/535/496
f 450/482/443 439/487/448 516/534/495 513/531/492
f 443/478/439 444/494/455 519/542/503 511/527/488
f 446/491/452 447/490/451 517/539/500 518/538/499
f 439/487/448 440/486/447 515/535/496 516/534/495
f 449/483/444 450/482/443 513/531/492 514/530/491
f 442/479/440 443/478/439 511/527/488 512/526/487
f 527/562/523 539/563/524 538/564/525 526/565/526
f 534/566/527 546/567/528 545/568/529 533/569/530
f 524/570/531 536/571/532 535/572/533 523/573/534
f 531/574/535 543/575/536 542/576/537 530/577/538
f 528/578/539 540/579/540 539/563/524 527/562/523
f 523/573/534 535/572/533 546/567/528 534/566/527
f 525/580/541 537/581/542 536/571/532 524/570/531
f 532/582/543 544/583/544 543/575/536 531/574/535
f 529/584/545 541/585/546 540/579/540 528/578/539
f 526/565/526 538/564/525 537/581/542 525/580/541
f 533/569/530 545/568/529 544/583/544 532/582/543
f 530/577/538 542/576/537 541/585/546 529/584/545
f 537/581/542 549/586/547 548/587/548 536/571/532
f 544/583/544 556/588/549 555/589/550 543/575/536
f 541/585/546 553/590/551 552/591/552 540/579/540
f 538/564/525 550/592/553 549/586/547 537/581/542
f 545/568/529 557/593/554 556/588/549 544/583/544
f 542/576/537 554/594/555 553/590/551 541/585/546
f 539/563/524 551/595/556 550/592/553 538/564/525
f 546/567/528 558/596/557 557/593/554 545/568/529
f 536/571/532 548/587/548 547/597/558 535/572/533
f 543/575/536 555/589/550 554/594/555 542/576/537
f 540/579/540 552/591/552 551/595/556 539/563/524
f 535/572/533 547/597/558 558/596/557 546/567/528
f 547/597/558 559/598/559 570/599/560 558/596/557
f 549/586/547 561/600/561 560/601/562 548/587/548
f 556/588/549 568/602/563 567/603/564 555/589/550
f 553/590/551 565/604/565 564/605/566 552/591/552
f 550/592/553 562/606/567 561/600/561 549/586/547
f 557/593/554 569/607/568 568/602/563 556/588/549
f 554/594/555 566/608/569 565/604/565 553/590/551
f 551/595/556 563/609/570 562/606/567 550/592/553
f 558/596/557 570/599/560 569/607/568 557/593/554
f 548/587/548 560/601/562 559/598/559 547/597/558
f 555/589/550 567/603/564 566/608/569 554/594/555
f 552/591/552 564/605/566 563/609/570 551/595/556
f 596/610/571 574/611/572 575/612/573 595/613/574
f 598/614/575 581/615/576 582/616/577 597/617/578
f 600/618/579 571/619/580 572/620/581 599/621/582
f 602/622/583 578/623/584 579/624/585 601/625/586
f 595/613/574 575/612/573 576/626/587 603/627/588
f 597/617/578 582/616/577 571/619/580 600/618/579
f 599/621/582 572/620/581 573/628/589 604/629/590
f 601/625/586 579/624/585 580/630/591 605/631/592
f 603/627/588 576/626/587 577/632/593 606/633/594
f 604/629/590 573/628/589 574/611/572 596/610/571
f 605/631/592 580/630/591 581/615/576 598/614/575
f 606/633/594 577/632/593 578/623/584 602/622/583
f 575/612/573 587/634/595 588/635/596 576/626/587
f 582/616/577 594/636/597 583/637/598 571/619/580
f 572/620/581 584/638/599 585/639/600 573/628/589
f 579/624/585 591/640/601 592/641/602 580/630/591
f 576/626/587 588/635/596 589/642/603 577/632/593
f 573/628/589 585/639/600 586/643/604 574/611/572
f 580/630/591 592/641/602 593/644/605 581/615/576
f 577/632/593 589/642/603 590/645/606 578/623/584
f 574/611/572 586/643/604 587/634/595 575/612/573
f 581/615/576 593/644/605 594/636/597 582/616/577
f 571/619/580 583/637/598 584/638/599 572/620/581
f 578/623/584 590/645/606 591/640/601 579/624/585
f 529/584/545 606/633/594 602/622/583 530/577/538
f 532/582/543 605/631/592 598/614/575 533/569/530
f 525/580/541 604/629/590 596/610/571 526/565/526
f 528/578/539 603/627/588 606/633/594 529/584/545
f 531/574/535 601/625/586 605/631/592 532/582/543
f 524/570/531 599/621/582 604/629/590 525/580/541
f 534/566/527 597/617/578 600/618/579 523/573/534
f 527/562/523 595/613/574 603/627/588 528/578/539
f 530/577/538 602/622/583 601/625/586 531/574/535
f 523/573/534 600/618/579 599/621/582 524/570/531
f 533/569/530 598/614/575 597/617/578 534/566/527
f 526/565/526 596/610/571 595/613/574 527/562/523
f 482/524/485 614/646/607 615/647/608 483/518/479
f 645/648/609 591/640/601 590/645/606 644/649/610
f 647/650/611 584/638/599 583/637/598 646/651/612
f 475/515/476 607/652/613 608/653/614 476/516/477
f 485/523/484 617/654/615 618/655/616 486/514/475
f 648/656/617 592/641/602 591/640/601 645/648/609
f 649/657/618 585/639/600 584/638/599 647/650/611
f 478/522/483 610/658/619 611/659/620 479/525/486
f 650/660/621 593/644/605 592/641/602 648/656/617
f 651/661/622 586/643/604 585/639/600 649/657/618
f 481/521/482 613/662/623 614/646/607 482/524/485
f 652/663/624 594/636/597 593/644/605 650/660/621
f 653/664/625 587/634/595 586/643/604 651/661/622
f 484/519/480 616/665/626 617/654/615 485/523/484
f 646/651/612 583/637/598 594/636/597 652/663/624
f 477/517/478 609/666/627 610/658/619 478/522/483
f 654/667/628 588/635/596 587/634/595 653/664/625
f 480/520/481 612/668/629 613/662/623 481/521/482
f 483/518/479 615/647/608 616/665/626 484/519/480
f 655/669/630 589/642/603 588/635/596 654/667/628
f 476/516/477 608/653/614 609/666/627 477/517/478
f 486/514/475 618/655/616 607/652/613 475/515/476
f 644/649/610 590/645/606 589/642/603 655/669/630
f 479/525/486 611/659/620 612/668/629 480/520/481
f 615/647/608 627/670/631 628/671/632 616/665/626
f 612/668/629 624/672/633 625/673/634 613/662/623
f 608/653/614 620/674/635 621/675/636 609/666/627
f 613/662/623 625/673/634 626/676/637 614/646/607
f 617/654/615 629/677/638 630/678/639 618/655/616
f 610/658/619 622/679/640 623/680/641 611/659/620
f 614/646/607 626/676/637 627/670/631 615/647/608
f 607/652/613 619/681/642 620/674/635 608/653/614
f 616/665/626 628/671/632 629/677/638 617/654/615
f 609/666/627 621/675/636 622/679/640 610/658/619
f 618/655/616 630/678/639 619/681/642 607/652/613
f 611/659/620 623/680/641 624/672/633 612/668/629
f 559/598/559 642/682/643 643/683/644 570/599/560
f 564/605/566 637/684/645 638/685/646 563/609/570
f 567/603/564 634/686/647 635/687/648 566/608/569
f 560/601/562 641/688/649 642/682/643 559/598/559
f 570/599/560 643/683/644 632/689/650 569/607/568
f 563/609/570 638/685/646 639/690/651 562/606/567
f 566/608/569 635/687/648 636/691/652 565/604/565
f 569/607/568 632/689/650 633/692/653 568/602/563
f 562/606/567 639/690/651 640/693/654 561/600/561
f 565/604/565 636/691/652 637/684/645 564/605/566
f 568/602/563 633/692/653 634/686/647 567/603/564
f 561/600/561 640/693/654 641/688/649 560/601/562
f 625/673/634 631/694/655 626/676/637
f 628/671/632 631/694/655 629/677/638
f 621/675/636 631/694/655 622/679/640
f 624/672/633 631/694/655 625/673/634
f 627/670/631 631/694/655 628/671/632
f 620/674/635 631/694/655 621/675/636
f 630/678/639 631/694/655 619/681/642
f 623/680/641 631/694/655 624/672/633
f 626/676/637 631/694/655 627/670/631
f 619/681/642 631/694/655 620/674/635
f 629/677/638 631/694/655 630/678/639
f 622/679/640 631/694/655 623/680/641
f 506/561/522 644/649/610 655/669/630 505/558/519
f 505/558/519 655/669/630 654/667/628 504/550/511
f 504/550/511 654/667/628 653/664/625 503/551/512
f 499/552/513 646/651/612 652/663/624 510/553/514
f 503/551/512 653/664/625 651/661/622 502/559/520
f 510/553/514 652/663/624 650/660/621 509/560/521
f 502/559/520 651/661/622 649/657/618 501/554/515
f 509/560/521 650/660/621 648/656/617 508/556/517
f 501/554/515 649/657/618 647/650/611 500/555/516
f 508/556/517 648/656/617 645/648/609 507/557/518
f 500/555/516 647/650/611 646/651/612 499/552/513
f 507/557/518 645/648/609 644/649/610 506/561/522
